eelab/lab1/ALL0009/F0009CH2.CSV

Record Length,2.500000e+03,,  -0.000042000000,  -2.88000,
Sample Interval,4.000000e-08,,  -0.000041960000,  -2.72000,
Trigger Point,1.050000000000e+03,,  -0.000041920000,  -2.56000,
,,,  -0.000041880000,  -2.56000,
,,,  -0.000041840000,  -2.56000,
,,,  -0.000041800000,  -2.48000,
Source,CH2,,  -0.000041760000,  -2.40000,
Vertical Units,V,,  -0.000041720000,  -2.24000,
Vertical Scale,2.000000e+00,,  -0.000041680000,  -2.08000,
Vertical Offset,-1.600000e+00,,  -0.000041640000,  -2.00000,
Horizontal Units,s,,  -0.000041600000,  -2.08000,
Horizontal Scale,1.000000e-05,,  -0.000041560000,  -1.92000,
Pt Fmt,Y,,  -0.000041520000,  -1.84000,
Yzero,0.000000e+00,,  -0.000041480000,  -1.84000,
Probe Atten,1.000000e+01,,  -0.000041440000,  -1.76000,
Model Number,TDS2014B,,  -0.000041400000,  -1.52000,
Serial Number,C010105,,  -0.000041360000,  -1.68000,
Firmware Version,FV:v22.16,,  -0.000041320000,  -1.52000,
,,,-00.000041280000,  -1.36000,
,,,-00.000041240000,  -1.36000,
,,,-00.000041200000,  -1.20000,
,,,-00.000041160000,  -1.28000,
,,,-00.000041120000,  -1.12000,
,,,-00.000041080000,  -1.04000,
,,,-00.000041040000,  -1.12000,
,,,-00.000041000000,  -1.04000,
,,,-00.000040960000,  -0.96000,
,,,-00.000040920000,  -0.80000,
,,,-00.000040880000,  -0.72000,
,,,-00.000040840000,  -0.72000,
,,,-00.000040800000,  -0.64000,
,,,-00.000040760000,  -0.56000,
,,,-00.000040720000,  -0.48000,
,,,-00.000040680000,  -0.48000,
,,,-00.000040640000,  -0.40000,
,,,-00.000040600000,  -0.32000,
,,,-00.000040560000,  -0.40000,
,,,-00.000040520000,  -0.24000,
,,,-00.000040480000,  -0.24000,
,,,-00.000040440000,  -0.16000,
,,,-00.000040400000,  -0.08000,
,,,-00.000040360000,  -0.08000,
,,,-00.000040320000,   0.00000,
,,,-00.000040280000,  -0.08000,
,,,-00.000040240000,   0.16000,
,,,-00.000040200000,   0.08000,
,,,-00.000040160000,   0.16000,
,,,-00.000040120000,   0.16000,
,,,-00.000040080000,   0.24000,
,,,-00.000040040000,   0.40000,
,,,-00.000040000000,   0.32000,
,,,-00.000039960000,   0.40000,
,,,-00.000039920000,   0.40000,
,,,-00.000039880000,   0.48000,
,,,-00.000039840000,   0.48000,
,,,-00.000039800000,   0.64000,
,,,-00.000039760000,   0.64000,
,,,-00.000039720000,   0.64000,
,,,-00.000039680000,   0.64000,
,,,-00.000039640000,   0.72000,
,,,-00.000039600000,   0.80000,
,,,-00.000039560000,   0.80000,
,,,-00.000039520000,   0.80000,
,,,-00.000039480000,   0.88000,
,,,-00.000039440000,   0.96000,
,,,-00.000039400000,   0.88000,
,,,-00.000039360000,   1.04000,
,,,-00.000039320000,   1.12000,
,,,-00.000039280000,   1.04000,
,,,-00.000039240000,   1.04000,
,,,-00.000039200000,   1.12000,
,,,-00.000039160000,   1.20000,
,,,-00.000039120000,   1.12000,
,,,-00.000039080000,   1.20000,
,,,-00.000039040000,   1.20000,
,,,-00.000039000000,   1.28000,
,,,-00.000038960000,   1.36000,
,,,-00.000038920000,   1.28000,
,,,-00.000038880000,   1.36000,
,,,-00.000038840000,   1.36000,
,,,-00.000038800000,   1.36000,
,,,-00.000038760000,   1.52000,
,,,-00.000038720000,   1.44000,
,,,-00.000038680000,   1.44000,
,,,-00.000038640000,   1.52000,
,,,-00.000038600000,   1.52000,
,,,-00.000038560000,   1.68000,
,,,-00.000038520000,   1.60000,
,,,-00.000038480000,   1.68000,
,,,-00.000038440000,   1.68000,
,,,-00.000038400000,   1.60000,
,,,-00.000038360000,   1.68000,
,,,-00.000038320000,   1.76000,
,,,-00.000038280000,   1.76000,
,,,-00.000038240000,   1.84000,
,,,-00.000038200000,   1.84000,
,,,-00.000038160000,   1.84000,
,,,-00.000038120000,   1.76000,
,,,-00.000038080000,   1.84000,
,,,-00.000038040000,   2.00000,
,,,-00.000038000000,   2.00000,
,,,-00.000037960000,   1.92000,
,,,-00.000037920000,   2.00000,
,,,-00.000037880000,   2.08000,
,,,-00.000037840000,   2.00000,
,,,-00.000037800000,   2.00000,
,,,-00.000037760000,   2.00000,
,,,-00.000037720000,   2.08000,
,,,-00.000037680000,   2.16000,
,,,-00.000037640000,   2.08000,
,,,-00.000037600000,   2.16000,
,,,-00.000037560000,   2.08000,
,,,-00.000037520000,   2.16000,
,,,-00.000037480000,   2.24000,
,,,-00.000037440000,   2.24000,
,,,-00.000037400000,   2.24000,
,,,-00.000037360000,   2.24000,
,,,-00.000037320000,   2.24000,
,,,-00.000037280000,   2.24000,
,,,-00.000037240000,   2.24000,
,,,-00.000037200000,   2.32000,
,,,-00.000037160000,   2.32000,
,,,-00.000037120000,   2.32000,
,,,-00.000037080000,   2.32000,
,,,-00.000037040000,   2.32000,
,,,-00.000037000000,   2.32000,
,,,-00.000036960000,   2.40000,
,,,-00.000036920000,   2.48000,
,,,-00.000036880000,   2.40000,
,,,-00.000036840000,   2.40000,
,,,-00.000036800000,   2.48000,
,,,-00.000036760000,   2.48000,
,,,-00.000036720000,   2.48000,
,,,-00.000036680000,   2.56000,
,,,-00.000036640000,   2.56000,
,,,-00.000036600000,   2.56000,
,,,-00.000036560000,   2.56000,
,,,-00.000036520000,   2.56000,
,,,-00.000036480000,   2.64000,
,,,-00.000036440000,   2.56000,
,,,-00.000036400000,   2.64000,
,,,-00.000036360000,   2.64000,
,,,-00.000036320000,   2.64000,
,,,-00.000036280000,   2.64000,
,,,-00.000036240000,   2.72000,
,,,-00.000036200000,   2.64000,
,,,-00.000036160000,   2.64000,
,,,-00.000036120000,   2.64000,
,,,-00.000036080000,   2.72000,
,,,-00.000036040000,   2.72000,
,,,-00.000036000000,   2.72000,
,,,-00.000035960000,   2.72000,
,,,-00.000035920000,   2.72000,
,,,-00.000035880000,   2.80000,
,,,-00.000035840000,   2.80000,
,,,-00.000035800000,   2.80000,
,,,-00.000035760000,   2.80000,
,,,-00.000035720000,   2.80000,
,,,-00.000035680000,   2.80000,
,,,-00.000035640000,   2.80000,
,,,-00.000035600000,   2.88000,
,,,-00.000035560000,   2.80000,
,,,-00.000035520000,   2.80000,
,,,-00.000035480000,   2.80000,
,,,-00.000035440000,   2.80000,
,,,-00.000035400000,   2.88000,
,,,-00.000035360000,   2.88000,
,,,-00.000035320000,   2.88000,
,,,-00.000035280000,   2.88000,
,,,-00.000035240000,   2.96000,
,,,-00.000035200000,   2.88000,
,,,-00.000035160000,   2.88000,
,,,-00.000035120000,   2.96000,
,,,-00.000035080000,   2.88000,
,,,-00.000035040000,   2.96000,
,,,-00.000035000000,   2.96000,
,,,-00.000034960000,   2.96000,
,,,-00.000034920000,   2.96000,
,,,-00.000034880000,   2.96000,
,,,-00.000034840000,   3.04000,
,,,-00.000034800000,   3.04000,
,,,-00.000034760000,   2.96000,
,,,-00.000034720000,   2.96000,
,,,-00.000034680000,   3.04000,
,,,-00.000034640000,   2.96000,
,,,-00.000034600000,   2.96000,
,,,-00.000034560000,   3.12000,
,,,-00.000034520000,   2.96000,
,,,-00.000034480000,   3.04000,
,,,-00.000034440000,   2.96000,
,,,-00.000034400000,   3.04000,
,,,-00.000034360000,   3.04000,
,,,-00.000034320000,   3.04000,
,,,-00.000034280000,   3.04000,
,,,-00.000034240000,   3.12000,
,,,-00.000034200000,   3.12000,
,,,-00.000034160000,   3.12000,
,,,-00.000034120000,   3.12000,
,,,-00.000034080000,   3.12000,
,,,-00.000034040000,   3.12000,
,,,-00.000034000000,   3.12000,
,,,-00.000033960000,   3.12000,
,,,-00.000033920000,   3.12000,
,,,-00.000033880000,   3.12000,
,,,-00.000033840000,   3.12000,
,,,-00.000033800000,   3.20000,
,,,-00.000033760000,   3.20000,
,,,-00.000033720000,   3.20000,
,,,-00.000033680000,   3.12000,
,,,-00.000033640000,   3.20000,
,,,-00.000033600000,   3.12000,
,,,-00.000033560000,   3.12000,
,,,-00.000033520000,   3.12000,
,,,-00.000033480000,   3.20000,
,,,-00.000033440000,   3.20000,
,,,-00.000033400000,   3.20000,
,,,-00.000033360000,   3.20000,
,,,-00.000033320000,   3.20000,
,,,-00.000033280000,   3.20000,
,,,-00.000033240000,   3.28000,
,,,-00.000033200000,   3.20000,
,,,-00.000033160000,   3.20000,
,,,-00.000033120000,   3.20000,
,,,-00.000033080000,   3.28000,
,,,-00.000033040000,   3.28000,
,,,-00.000033000000,   3.28000,
,,,-00.000032960000,   3.28000,
,,,-00.000032920000,   3.28000,
,,,-00.000032880000,   3.28000,
,,,-00.000032840000,   3.20000,
,,,-00.000032800000,   3.28000,
,,,-00.000032760000,   3.28000,
,,,-00.000032720000,   3.36000,
,,,-00.000032680000,   3.20000,
,,,-00.000032640000,   3.20000,
,,,-00.000032600000,   3.20000,
,,,-00.000032560000,   3.20000,
,,,-00.000032520000,   3.28000,
,,,-00.000032480000,   3.28000,
,,,-00.000032440000,   3.20000,
,,,-00.000032400000,   3.28000,
,,,-00.000032360000,   3.20000,
,,,-00.000032320000,   3.28000,
,,,-00.000032280000,   3.28000,
,,,-00.000032240000,   3.28000,
,,,-00.000032200000,   3.28000,
,,,-00.000032160000,   3.28000,
,,,-00.000032120000,   3.28000,
,,,-00.000032080000,   3.28000,
,,,-00.000032040000,   3.28000,
,,,-00.000032000000,   3.28000,
,,,-00.000031960000,   3.28000,
,,,-00.000031920000,   3.36000,
,,,-00.000031880000,   3.28000,
,,,-00.000031840000,   3.28000,
,,,-00.000031800000,   3.36000,
,,,-00.000031760000,   3.36000,
,,,-00.000031720000,   3.20000,
,,,-00.000031680000,   3.36000,
,,,-00.000031640000,   3.28000,
,,,-00.000031600000,   3.28000,
,,,-00.000031560000,   3.28000,
,,,-00.000031520000,   3.36000,
,,,-00.000031480000,   3.28000,
,,,-00.000031440000,   3.36000,
,,,-00.000031400000,   3.28000,
,,,-00.000031360000,   3.36000,
,,,-00.000031320000,   3.36000,
,,,-00.000031280000,   3.28000,
,,,-00.000031240000,   3.36000,
,,,-00.000031200000,   3.36000,
,,,-00.000031160000,   3.36000,
,,,-00.000031120000,   3.36000,
,,,-00.000031080000,   3.28000,
,,,-00.000031040000,   3.44000,
,,,-00.000031000000,   3.28000,
,,,-00.000030960000,   3.36000,
,,,-00.000030920000,   3.36000,
,,,-00.000030880000,   3.28000,
,,,-00.000030840000,   3.36000,
,,,-00.000030800000,   3.28000,
,,,-00.000030760000,   3.36000,
,,,-00.000030720000,   3.28000,
,,,-00.000030680000,   3.36000,
,,,-00.000030640000,   3.28000,
,,,-00.000030600000,   3.36000,
,,,-00.000030560000,   3.36000,
,,,-00.000030520000,   3.36000,
,,,-00.000030480000,   3.36000,
,,,-00.000030440000,   3.36000,
,,,-00.000030400000,   3.44000,
,,,-00.000030360000,   3.28000,
,,,-00.000030320000,   3.44000,
,,,-00.000030280000,   3.36000,
,,,-00.000030240000,   3.28000,
,,,-00.000030200000,   3.36000,
,,,-00.000030160000,   3.44000,
,,,-00.000030120000,   3.44000,
,,,-00.000030080000,   3.44000,
,,,-00.000030040000,   3.44000,
,,,-00.000030000000,   3.44000,
,,,-00.000029960000,   3.36000,
,,,-00.000029920000,   3.36000,
,,,-00.000029880000,   3.36000,
,,,-00.000029840000,   3.44000,
,,,-00.000029800000,   3.44000,
,,,-00.000029760000,   3.44000,
,,,-00.000029720000,   3.36000,
,,,-00.000029680000,   3.44000,
,,,-00.000029640000,   3.36000,
,,,-00.000029600000,   3.44000,
,,,-00.000029560000,   3.44000,
,,,-00.000029520000,   3.44000,
,,,-00.000029480000,   3.36000,
,,,-00.000029440000,   3.44000,
,,,-00.000029400000,   3.36000,
,,,-00.000029360000,   3.44000,
,,,-00.000029320000,   3.36000,
,,,-00.000029280000,   3.44000,
,,,-00.000029240000,   3.44000,
,,,-00.000029200000,   3.44000,
,,,-00.000029160000,   3.36000,
,,,-00.000029120000,   3.44000,
,,,-00.000029080000,   3.44000,
,,,-00.000029040000,   3.44000,
,,,-00.000029000000,   3.44000,
,,,-00.000028960000,   3.44000,
,,,-00.000028920000,   3.36000,
,,,-00.000028880000,   3.44000,
,,,-00.000028840000,   3.44000,
,,,-00.000028800000,   3.36000,
,,,-00.000028760000,   3.36000,
,,,-00.000028720000,   3.36000,
,,,-00.000028680000,   3.44000,
,,,-00.000028640000,   3.44000,
,,,-00.000028600000,   3.36000,
,,,-00.000028560000,   3.44000,
,,,-00.000028520000,   3.44000,
,,,-00.000028480000,   3.44000,
,,,-00.000028440000,   3.44000,
,,,-00.000028400000,   3.44000,
,,,-00.000028360000,   3.36000,
,,,-00.000028320000,   3.44000,
,,,-00.000028280000,   3.44000,
,,,-00.000028240000,   3.44000,
,,,-00.000028200000,   3.52000,
,,,-00.000028160000,   3.44000,
,,,-00.000028120000,   3.44000,
,,,-00.000028080000,   3.44000,
,,,-00.000028040000,   3.52000,
,,,-00.000028000000,   3.44000,
,,,-00.000027960000,   3.44000,
,,,-00.000027920000,   3.44000,
,,,-00.000027880000,   3.44000,
,,,-00.000027840000,   3.44000,
,,,-00.000027800000,   3.44000,
,,,-00.000027760000,   3.44000,
,,,-00.000027720000,   3.44000,
,,,-00.000027680000,   3.44000,
,,,-00.000027640000,   3.44000,
,,,-00.000027600000,   3.44000,
,,,-00.000027560000,   3.52000,
,,,-00.000027520000,   3.36000,
,,,-00.000027480000,   3.44000,
,,,-00.000027440000,   3.44000,
,,,-00.000027400000,   3.52000,
,,,-00.000027360000,   3.44000,
,,,-00.000027320000,   3.44000,
,,,-00.000027280000,   3.44000,
,,,-00.000027240000,   3.52000,
,,,-00.000027200000,   3.44000,
,,,-00.000027160000,   3.44000,
,,,-00.000027120000,   3.36000,
,,,-00.000027080000,   3.44000,
,,,-00.000027040000,   3.36000,
,,,-00.000027000000,   3.44000,
,,,-00.000026960000,   3.44000,
,,,-00.000026920000,   3.44000,
,,,-00.000026880000,   3.44000,
,,,-00.000026840000,   3.44000,
,,,-00.000026800000,   3.52000,
,,,-00.000026760000,   3.44000,
,,,-00.000026720000,   3.36000,
,,,-00.000026680000,   3.44000,
,,,-00.000026640000,   3.44000,
,,,-00.000026600000,   3.44000,
,,,-00.000026560000,   3.44000,
,,,-00.000026520000,   3.36000,
,,,-00.000026480000,   3.36000,
,,,-00.000026440000,   3.44000,
,,,-00.000026400000,   3.44000,
,,,-00.000026360000,   3.52000,
,,,-00.000026320000,   3.44000,
,,,-00.000026280000,   3.52000,
,,,-00.000026240000,   3.52000,
,,,-00.000026200000,   3.44000,
,,,-00.000026160000,   3.44000,
,,,-00.000026120000,   3.60000,
,,,-00.000026080000,   3.36000,
,,,-00.000026040000,   3.44000,
,,,-00.000026000000,   3.44000,
,,,-00.000025960000,   3.44000,
,,,-00.000025920000,   3.44000,
,,,-00.000025880000,   3.44000,
,,,-00.000025840000,   3.52000,
,,,-00.000025800000,   3.44000,
,,,-00.000025760000,   3.44000,
,,,-00.000025720000,   3.44000,
,,,-00.000025680000,   3.52000,
,,,-00.000025640000,   3.44000,
,,,-00.000025600000,   3.44000,
,,,-00.000025560000,   3.52000,
,,,-00.000025520000,   3.44000,
,,,-00.000025480000,   3.44000,
,,,-00.000025440000,   3.44000,
,,,-00.000025400000,   3.44000,
,,,-00.000025360000,   3.44000,
,,,-00.000025320000,   3.44000,
,,,-00.000025280000,   3.44000,
,,,-00.000025240000,   3.44000,
,,,-00.000025200000,   3.52000,
,,,-00.000025160000,   3.44000,
,,,-00.000025120000,   3.36000,
,,,-00.000025080000,   3.60000,
,,,-00.000025040000,   3.44000,
,,,-00.000025000000,   3.44000,
,,,-00.000024960000,   3.52000,
,,,-00.000024920000,   3.44000,
,,,-00.000024880000,   3.44000,
,,,-00.000024840000,   3.44000,
,,,-00.000024800000,   3.44000,
,,,-00.000024760000,   3.44000,
,,,-00.000024720000,   3.44000,
,,,-00.000024680000,   3.44000,
,,,-00.000024640000,   3.36000,
,,,-00.000024600000,   3.52000,
,,,-00.000024560000,   3.44000,
,,,-00.000024520000,   3.44000,
,,,-00.000024480000,   3.44000,
,,,-00.000024440000,   3.44000,
,,,-00.000024400000,   3.44000,
,,,-00.000024360000,   3.52000,
,,,-00.000024320000,   3.44000,
,,,-00.000024280000,   3.44000,
,,,-00.000024240000,   3.52000,
,,,-00.000024200000,   3.52000,
,,,-00.000024160000,   3.52000,
,,,-00.000024120000,   3.52000,
,,,-00.000024080000,   3.52000,
,,,-00.000024040000,   3.52000,
,,,-00.000024000000,   3.44000,
,,,-00.000023960000,   3.44000,
,,,-00.000023920000,   3.44000,
,,,-00.000023880000,   3.52000,
,,,-00.000023840000,   3.52000,
,,,-00.000023800000,   3.44000,
,,,-00.000023760000,   3.44000,
,,,-00.000023720000,   3.52000,
,,,-00.000023680000,   3.52000,
,,,-00.000023640000,   3.44000,
,,,-00.000023600000,   3.52000,
,,,-00.000023560000,   3.36000,
,,,-00.000023520000,   3.44000,
,,,-00.000023480000,   3.44000,
,,,-00.000023440000,   3.52000,
,,,-00.000023400000,   3.44000,
,,,-00.000023360000,   3.44000,
,,,-00.000023320000,   3.52000,
,,,-00.000023280000,   3.52000,
,,,-00.000023240000,   3.44000,
,,,-00.000023200000,   3.44000,
,,,-00.000023160000,   3.44000,
,,,-00.000023120000,   3.52000,
,,,-00.000023080000,   3.44000,
,,,-00.000023040000,   3.44000,
,,,-00.000023000000,   3.44000,
,,,-00.000022960000,   3.52000,
,,,-00.000022920000,   3.52000,
,,,-00.000022880000,   3.44000,
,,,-00.000022840000,   3.44000,
,,,-00.000022800000,   3.52000,
,,,-00.000022760000,   3.44000,
,,,-00.000022720000,   3.44000,
,,,-00.000022680000,   3.44000,
,,,-00.000022640000,   3.44000,
,,,-00.000022600000,   3.44000,
,,,-00.000022560000,   3.44000,
,,,-00.000022520000,   3.44000,
,,,-00.000022480000,   3.44000,
,,,-00.000022440000,   3.52000,
,,,-00.000022400000,   3.44000,
,,,-00.000022360000,   3.44000,
,,,-00.000022320000,   3.44000,
,,,-00.000022280000,   3.44000,
,,,-00.000022240000,   2.48000,
,,,-00.000022200000,   3.44000,
,,,-00.000022160000,   3.52000,
,,,-00.000022120000,   3.28000,
,,,-00.000022080000,   3.12000,
,,,-00.000022040000,   2.96000,
,,,-00.000022000000,   2.88000,
,,,-00.000021960000,   2.80000,
,,,-00.000021920000,   2.64000,
,,,-00.000021880000,   2.48000,
,,,-00.000021840000,   2.56000,
,,,-00.000021800000,   2.56000,
,,,-00.000021760000,   2.32000,
,,,-00.000021720000,   2.32000,
,,,-00.000021680000,   2.16000,
,,,-00.000021640000,   2.00000,
,,,-00.000021600000,   2.08000,
,,,-00.000021560000,   1.92000,
,,,-00.000021520000,   1.76000,
,,,-00.000021480000,   1.76000,
,,,-00.000021440000,   1.68000,
,,,-00.000021400000,   1.60000,
,,,-00.000021360000,   1.60000,
,,,-00.000021320000,   1.52000,
,,,-00.000021280000,   1.52000,
,,,-00.000021240000,   1.36000,
,,,-00.000021200000,   1.28000,
,,,-00.000021160000,   1.20000,
,,,-00.000021120000,   1.20000,
,,,-00.000021080000,   1.12000,
,,,-00.000021040000,   1.04000,
,,,-00.000021000000,   0.96000,
,,,-00.000020960000,   0.80000,
,,,-00.000020920000,   0.80000,
,,,-00.000020880000,   0.80000,
,,,-00.000020840000,   0.80000,
,,,-00.000020800000,   0.64000,
,,,-00.000020760000,   0.56000,
,,,-00.000020720000,   0.56000,
,,,-00.000020680000,   0.40000,
,,,-00.000020640000,   0.48000,
,,,-00.000020600000,   0.32000,
,,,-00.000020560000,   0.32000,
,,,-00.000020520000,   0.16000,
,,,-00.000020480000,   0.24000,
,,,-00.000020440000,   0.24000,
,,,-00.000020400000,   0.16000,
,,,-00.000020360000,   0.00000,
,,,-00.000020320000,   0.00000,
,,,-00.000020280000,   0.00000,
,,,-00.000020240000,  -0.08000,
,,,-00.000020200000,  -0.16000,
,,,-00.000020160000,  -0.24000,
,,,-00.000020120000,  -0.24000,
,,,-00.000020080000,  -0.24000,
,,,-00.000020040000,  -0.32000,
,,,-00.000020000000,  -0.40000,
,,,-00.000019960000,  -0.40000,
,,,-00.000019920000,  -0.48000,
,,,-00.000019880000,  -0.56000,
,,,-00.000019840000,  -0.64000,
,,,-00.000019800000,  -0.56000,
,,,-00.000019760000,  -0.48000,
,,,-00.000019720000,  -0.72000,
,,,-00.000019680000,  -0.72000,
,,,-00.000019640000,  -0.72000,
,,,-00.000019600000,  -0.80000,
,,,-00.000019560000,  -0.88000,
,,,-00.000019520000,  -0.80000,
,,,-00.000019480000,  -0.88000,
,,,-00.000019440000,  -0.88000,
,,,-00.000019400000,  -0.96000,
,,,-00.000019360000,  -1.04000,
,,,-00.000019320000,  -1.04000,
,,,-00.000019280000,  -1.04000,
,,,-00.000019240000,  -1.12000,
,,,-00.000019200000,  -1.12000,
,,,-00.000019160000,  -1.12000,
,,,-00.000019120000,  -1.20000,
,,,-00.000019080000,  -1.28000,
,,,-00.000019040000,  -1.28000,
,,,-00.000019000000,  -1.36000,
,,,-00.000018960000,  -1.28000,
,,,-00.000018920000,  -1.36000,
,,,-00.000018880000,  -1.52000,
,,,-00.000018840000,  -1.36000,
,,,-00.000018800000,  -1.52000,
,,,-00.000018760000,  -1.52000,
,,,-00.000018720000,  -1.52000,
,,,-00.000018680000,  -1.52000,
,,,-00.000018640000,  -1.52000,
,,,-00.000018600000,  -1.60000,
,,,-00.000018560000,  -1.60000,
,,,-00.000018520000,  -1.68000,
,,,-00.000018480000,  -1.68000,
,,,-00.000018440000,  -1.68000,
,,,-00.000018400000,  -1.60000,
,,,-00.000018360000,  -1.60000,
,,,-00.000018320000,  -1.84000,
,,,-00.000018280000,  -1.76000,
,,,-00.000018240000,  -1.84000,
,,,-00.000018200000,  -1.76000,
,,,-00.000018160000,  -1.84000,
,,,-00.000018120000,  -1.92000,
,,,-00.000018080000,  -1.92000,
,,,-00.000018040000,  -2.00000,
,,,-00.000018000000,  -2.08000,
,,,-00.000017960000,  -2.00000,
,,,-00.000017920000,  -1.92000,
,,,-00.000017880000,  -2.00000,
,,,-00.000017840000,  -2.08000,
,,,-00.000017800000,  -2.08000,
,,,-00.000017760000,  -2.08000,
,,,-00.000017720000,  -2.16000,
,,,-00.000017680000,  -2.08000,
,,,-00.000017640000,  -2.16000,
,,,-00.000017600000,  -2.16000,
,,,-00.000017560000,  -2.24000,
,,,-00.000017520000,  -2.00000,
,,,-00.000017480000,  -2.24000,
