eelab/lab4/ALL0030/F0030CH1.CSV

Record Length,2.500000e+03,,   0.000000012400,   0.08560,
Sample Interval,4.000000e-11,,   0.000000012440,   0.08560,
Trigger Point,-3.100000000000e+02,,   0.000000012480,   0.08560,
,,,   0.000000012520,   0.08560,
,,,   0.000000012560,   0.08560,
,,,   0.000000012600,   0.08560,
Source,CH1,,   0.000000012640,   0.08560,
Vertical Units,V,,   0.000000012680,   0.08560,
Vertical Scale,2.000000e-02,,   0.000000012720,   0.08560,
Vertical Offset,-6.880000e-02,,   0.000000012760,   0.08560,
Horizontal Units,s,,   0.000000012800,   0.08560,
Horizontal Scale,1.000000e-08,,   0.000000012840,   0.08560,
Pt Fmt,Y,,   0.000000012880,   0.08560,
Yzero,0.000000e+00,,   0.000000012920,   0.08560,
Probe Atten,1.000000e+00,,   0.000000012960,   0.08560,
Model Number,TDS2014B,,   0.000000013000,   0.08560,
Serial Number,C010105,,   0.000000013040,   0.08560,
Firmware Version,FV:v22.16,,   0.000000013080,   0.08560,
,,,0.000000013120,   0.08560,
,,,0.000000013160,   0.08560,
,,,0.000000013200,   0.08560,
,,,0.000000013240,   0.08560,
,,,0.000000013280,   0.08560,
,,,0.000000013320,   0.08560,
,,,0.000000013360,   0.08560,
,,,0.000000013400,   0.08560,
,,,0.000000013440,   0.08560,
,,,0.000000013480,   0.08480,
,,,0.000000013520,   0.08480,
,,,0.000000013560,   0.08480,
,,,0.000000013600,   0.08480,
,,,0.000000013640,   0.08480,
,,,0.000000013680,   0.08480,
,,,0.000000013720,   0.08480,
,,,0.000000013760,   0.08480,
,,,0.000000013800,   0.08480,
,,,0.000000013840,   0.08480,
,,,0.000000013880,   0.08480,
,,,0.000000013920,   0.08480,
,,,0.000000013960,   0.08480,
,,,0.000000014000,   0.08480,
,,,0.000000014040,   0.08480,
,,,0.000000014080,   0.08480,
,,,0.000000014120,   0.08480,
,,,0.000000014160,   0.08480,
,,,0.000000014200,   0.08480,
,,,0.000000014240,   0.08400,
,,,0.000000014280,   0.08400,
,,,0.000000014320,   0.08400,
,,,0.000000014360,   0.08400,
,,,0.000000014400,   0.08400,
,,,0.000000014440,   0.08400,
,,,0.000000014480,   0.08400,
,,,0.000000014520,   0.08400,
,,,0.000000014560,   0.08400,
,,,0.000000014600,   0.08400,
,,,0.000000014640,   0.08400,
,,,0.000000014680,   0.08400,
,,,0.000000014720,   0.08400,
,,,0.000000014760,   0.08400,
,,,0.000000014800,   0.08400,
,,,0.000000014840,   0.08320,
,,,0.000000014880,   0.08320,
,,,0.000000014920,   0.08320,
,,,0.000000014960,   0.08320,
,,,0.000000015000,   0.08320,
,,,0.000000015040,   0.08320,
,,,0.000000015080,   0.08320,
,,,0.000000015120,   0.08320,
,,,0.000000015160,   0.08320,
,,,0.000000015200,   0.08320,
,,,0.000000015240,   0.08320,
,,,0.000000015280,   0.08320,
,,,0.000000015320,   0.08320,
,,,0.000000015360,   0.08320,
,,,0.000000015400,   0.08320,
,,,0.000000015440,   0.08320,
,,,0.000000015480,   0.08320,
,,,0.000000015520,   0.08240,
,,,0.000000015560,   0.08240,
,,,0.000000015600,   0.08240,
,,,0.000000015640,   0.08240,
,,,0.000000015680,   0.08240,
,,,0.000000015720,   0.08240,
,,,0.000000015760,   0.08240,
,,,0.000000015800,   0.08240,
,,,0.000000015840,   0.08240,
,,,0.000000015880,   0.08240,
,,,0.000000015920,   0.08240,
,,,0.000000015960,   0.08240,
,,,0.000000016000,   0.08240,
,,,0.000000016040,   0.08240,
,,,0.000000016080,   0.08240,
,,,0.000000016120,   0.08240,
,,,0.000000016160,   0.08240,
,,,0.000000016200,   0.08240,
,,,0.000000016240,   0.08240,
,,,0.000000016280,   0.08240,
,,,0.000000016320,   0.08160,
,,,0.000000016360,   0.08160,
,,,0.000000016400,   0.08160,
,,,0.000000016440,   0.08160,
,,,0.000000016480,   0.08160,
,,,0.000000016520,   0.08160,
,,,0.000000016560,   0.08160,
,,,0.000000016600,   0.08160,
,,,0.000000016640,   0.08160,
,,,0.000000016680,   0.08160,
,,,0.000000016720,   0.08160,
,,,0.000000016760,   0.08160,
,,,0.000000016800,   0.08160,
,,,0.000000016840,   0.08160,
,,,0.000000016880,   0.08160,
,,,0.000000016920,   0.08160,
,,,0.000000016960,   0.08160,
,,,0.000000017000,   0.08160,
,,,0.000000017040,   0.08160,
,,,0.000000017080,   0.08160,
,,,0.000000017120,   0.08160,
,,,0.000000017160,   0.08160,
,,,0.000000017200,   0.08160,
,,,0.000000017240,   0.08160,
,,,0.000000017280,   0.08160,
,,,0.000000017320,   0.08160,
,,,0.000000017360,   0.08160,
,,,0.000000017400,   0.08080,
,,,0.000000017440,   0.08080,
,,,0.000000017480,   0.08080,
,,,0.000000017520,   0.08080,
,,,0.000000017560,   0.08080,
,,,0.000000017600,   0.08080,
,,,0.000000017640,   0.08080,
,,,0.000000017680,   0.08080,
,,,0.000000017720,   0.08080,
,,,0.000000017760,   0.08080,
,,,0.000000017800,   0.08080,
,,,0.000000017840,   0.08080,
,,,0.000000017880,   0.08080,
,,,0.000000017920,   0.08080,
,,,0.000000017960,   0.08080,
,,,0.000000018000,   0.08080,
,,,0.000000018040,   0.08080,
,,,0.000000018080,   0.08080,
,,,0.000000018120,   0.08080,
,,,0.000000018160,   0.08080,
,,,0.000000018200,   0.08080,
,,,0.000000018240,   0.08080,
,,,0.000000018280,   0.08080,
,,,0.000000018320,   0.08080,
,,,0.000000018360,   0.08080,
,,,0.000000018400,   0.08080,
,,,0.000000018440,   0.08080,
,,,0.000000018480,   0.08080,
,,,0.000000018520,   0.08080,
,,,0.000000018560,   0.08080,
,,,0.000000018600,   0.08080,
,,,0.000000018640,   0.08080,
,,,0.000000018680,   0.08080,
,,,0.000000018720,   0.08080,
,,,0.000000018760,   0.08080,
,,,0.000000018800,   0.08080,
,,,0.000000018840,   0.08080,
,,,0.000000018880,   0.08080,
,,,0.000000018920,   0.08080,
,,,0.000000018960,   0.08080,
,,,0.000000019000,   0.08080,
,,,0.000000019040,   0.08160,
,,,0.000000019080,   0.08160,
,,,0.000000019120,   0.08160,
,,,0.000000019160,   0.08160,
,,,0.000000019200,   0.08160,
,,,0.000000019240,   0.08160,
,,,0.000000019280,   0.08160,
,,,0.000000019320,   0.08160,
,,,0.000000019360,   0.08160,
,,,0.000000019400,   0.08160,
,,,0.000000019440,   0.08160,
,,,0.000000019480,   0.08160,
,,,0.000000019520,   0.08160,
,,,0.000000019560,   0.08160,
,,,0.000000019600,   0.08160,
,,,0.000000019640,   0.08160,
,,,0.000000019680,   0.08160,
,,,0.000000019720,   0.08160,
,,,0.000000019760,   0.08160,
,,,0.000000019800,   0.08160,
,,,0.000000019840,   0.08160,
,,,0.000000019880,   0.08160,
,,,0.000000019920,   0.08160,
,,,0.000000019960,   0.08160,
,,,0.000000020000,   0.08160,
,,,0.000000020040,   0.08160,
,,,0.000000020080,   0.08240,
,,,0.000000020120,   0.08240,
,,,0.000000020160,   0.08240,
,,,0.000000020200,   0.08240,
,,,0.000000020240,   0.08240,
,,,0.000000020280,   0.08240,
,,,0.000000020320,   0.08240,
,,,0.000000020360,   0.08240,
,,,0.000000020400,   0.08240,
,,,0.000000020440,   0.08240,
,,,0.000000020480,   0.08240,
,,,0.000000020520,   0.08240,
,,,0.000000020560,   0.08240,
,,,0.000000020600,   0.08240,
,,,0.000000020640,   0.08240,
,,,0.000000020680,   0.08240,
,,,0.000000020720,   0.08320,
,,,0.000000020760,   0.08320,
,,,0.000000020800,   0.08320,
,,,0.000000020840,   0.08320,
,,,0.000000020880,   0.08320,
,,,0.000000020920,   0.08320,
,,,0.000000020960,   0.08320,
,,,0.000000021000,   0.08320,
,,,0.000000021040,   0.08320,
,,,0.000000021080,   0.08320,
,,,0.000000021120,   0.08320,
,,,0.000000021160,   0.08320,
,,,0.000000021200,   0.08320,
,,,0.000000021240,   0.08400,
,,,0.000000021280,   0.08400,
,,,0.000000021320,   0.08400,
,,,0.000000021360,   0.08400,
,,,0.000000021400,   0.08400,
,,,0.000000021440,   0.08400,
,,,0.000000021480,   0.08400,
,,,0.000000021520,   0.08400,
,,,0.000000021560,   0.08400,
,,,0.000000021600,   0.08400,
,,,0.000000021640,   0.08400,
,,,0.000000021680,   0.08400,
,,,0.000000021720,   0.08480,
,,,0.000000021760,   0.08480,
,,,0.000000021800,   0.08480,
,,,0.000000021840,   0.08480,
,,,0.000000021880,   0.08480,
,,,0.000000021920,   0.08480,
,,,0.000000021960,   0.08480,
,,,0.000000022000,   0.08480,
,,,0.000000022040,   0.08480,
,,,0.000000022080,   0.08480,
,,,0.000000022120,   0.08480,
,,,0.000000022160,   0.08560,
,,,0.000000022200,   0.08560,
,,,0.000000022240,   0.08560,
,,,0.000000022280,   0.08560,
,,,0.000000022320,   0.08560,
,,,0.000000022360,   0.08560,
,,,0.000000022400,   0.08560,
,,,0.000000022440,   0.08560,
,,,0.000000022480,   0.08560,
,,,0.000000022520,   0.08560,
,,,0.000000022560,   0.08560,
,,,0.000000022600,   0.08640,
,,,0.000000022640,   0.08640,
,,,0.000000022680,   0.08640,
,,,0.000000022720,   0.08640,
,,,0.000000022760,   0.08640,
,,,0.000000022800,   0.08640,
,,,0.000000022840,   0.08640,
,,,0.000000022880,   0.08640,
,,,0.000000022920,   0.08640,
,,,0.000000022960,   0.08640,
,,,0.000000023000,   0.08720,
,,,0.000000023040,   0.08720,
,,,0.000000023080,   0.08720,
,,,0.000000023120,   0.08720,
,,,0.000000023160,   0.08720,
,,,0.000000023200,   0.08720,
,,,0.000000023240,   0.08720,
,,,0.000000023280,   0.08720,
,,,0.000000023320,   0.08720,
,,,0.000000023360,   0.08720,
,,,0.000000023400,   0.08800,
,,,0.000000023440,   0.08800,
,,,0.000000023480,   0.08800,
,,,0.000000023520,   0.08800,
,,,0.000000023560,   0.08800,
,,,0.000000023600,   0.08800,
,,,0.000000023640,   0.08800,
,,,0.000000023680,   0.08800,
,,,0.000000023720,   0.08800,
,,,0.000000023760,   0.08800,
,,,0.000000023800,   0.08880,
,,,0.000000023840,   0.08880,
,,,0.000000023880,   0.08880,
,,,0.000000023920,   0.08880,
,,,0.000000023960,   0.08880,
,,,0.000000024000,   0.08880,
,,,0.000000024040,   0.08880,
,,,0.000000024080,   0.08880,
,,,0.000000024120,   0.08880,
,,,0.000000024160,   0.08880,
,,,0.000000024200,   0.08960,
,,,0.000000024240,   0.08960,
,,,0.000000024280,   0.08960,
,,,0.000000024320,   0.08960,
,,,0.000000024360,   0.08960,
,,,0.000000024400,   0.08960,
,,,0.000000024440,   0.08960,
,,,0.000000024480,   0.08960,
,,,0.000000024520,   0.08960,
,,,0.000000024560,   0.08960,
,,,0.000000024600,   0.09040,
,,,0.000000024640,   0.09040,
,,,0.000000024680,   0.09040,
,,,0.000000024720,   0.09040,
,,,0.000000024760,   0.09040,
,,,0.000000024800,   0.09040,
,,,0.000000024840,   0.09040,
,,,0.000000024880,   0.09040,
,,,0.000000024920,   0.09040,
,,,0.000000024960,   0.09120,
,,,0.000000025000,   0.09120,
,,,0.000000025040,   0.09120,
,,,0.000000025080,   0.09120,
,,,0.000000025120,   0.09120,
,,,0.000000025160,   0.09120,
,,,0.000000025200,   0.09120,
,,,0.000000025240,   0.09120,
,,,0.000000025280,   0.09120,
,,,0.000000025320,   0.09120,
,,,0.000000025360,   0.09200,
,,,0.000000025400,   0.09200,
,,,0.000000025440,   0.09200,
,,,0.000000025480,   0.09200,
,,,0.000000025520,   0.09200,
,,,0.000000025560,   0.09200,
,,,0.000000025600,   0.09200,
,,,0.000000025640,   0.09200,
,,,0.000000025680,   0.09200,
,,,0.000000025720,   0.09200,
,,,0.000000025760,   0.09200,
,,,0.000000025800,   0.09280,
,,,0.000000025840,   0.09280,
,,,0.000000025880,   0.09280,
,,,0.000000025920,   0.09280,
,,,0.000000025960,   0.09280,
,,,0.000000026000,   0.09280,
,,,0.000000026040,   0.09280,
,,,0.000000026080,   0.09280,
,,,0.000000026120,   0.09280,
,,,0.000000026160,   0.09280,
,,,0.000000026200,   0.09360,
,,,0.000000026240,   0.09360,
,,,0.000000026280,   0.09360,
,,,0.000000026320,   0.09360,
,,,0.000000026360,   0.09360,
,,,0.000000026400,   0.09360,
,,,0.000000026440,   0.09360,
,,,0.000000026480,   0.09360,
,,,0.000000026520,   0.09360,
,,,0.000000026560,   0.09360,
,,,0.000000026600,   0.09440,
,,,0.000000026640,   0.09440,
,,,0.000000026680,   0.09440,
,,,0.000000026720,   0.09440,
,,,0.000000026760,   0.09440,
,,,0.000000026800,   0.09440,
,,,0.000000026840,   0.09440,
,,,0.000000026880,   0.09440,
,,,0.000000026920,   0.09440,
,,,0.000000026960,   0.09440,
,,,0.000000027000,   0.09440,
,,,0.000000027040,   0.09520,
,,,0.000000027080,   0.09520,
,,,0.000000027120,   0.09520,
,,,0.000000027160,   0.09520,
,,,0.000000027200,   0.09520,
,,,0.000000027240,   0.09520,
,,,0.000000027280,   0.09520,
,,,0.000000027320,   0.09520,
,,,0.000000027360,   0.09520,
,,,0.000000027400,   0.09520,
,,,0.000000027440,   0.09520,
,,,0.000000027480,   0.09520,
,,,0.000000027520,   0.09600,
,,,0.000000027560,   0.09600,
,,,0.000000027600,   0.09600,
,,,0.000000027640,   0.09600,
,,,0.000000027680,   0.09600,
,,,0.000000027720,   0.09600,
,,,0.000000027760,   0.09600,
,,,0.000000027800,   0.09600,
,,,0.000000027840,   0.09600,
,,,0.000000027880,   0.09600,
,,,0.000000027920,   0.09600,
,,,0.000000027960,   0.09680,
,,,0.000000028000,   0.09680,
,,,0.000000028040,   0.09680,
,,,0.000000028080,   0.09680,
,,,0.000000028120,   0.09680,
,,,0.000000028160,   0.09680,
,,,0.000000028200,   0.09680,
,,,0.000000028240,   0.09680,
,,,0.000000028280,   0.09680,
,,,0.000000028320,   0.09680,
,,,0.000000028360,   0.09680,
,,,0.000000028400,   0.09680,
,,,0.000000028440,   0.09760,
,,,0.000000028480,   0.09760,
,,,0.000000028520,   0.09760,
,,,0.000000028560,   0.09760,
,,,0.000000028600,   0.09760,
,,,0.000000028640,   0.09760,
,,,0.000000028680,   0.09760,
,,,0.000000028720,   0.09760,
,,,0.000000028760,   0.09760,
,,,0.000000028800,   0.09760,
,,,0.000000028840,   0.09760,
,,,0.000000028880,   0.09760,
,,,0.000000028920,   0.09840,
,,,0.000000028960,   0.09840,
,,,0.000000029000,   0.09840,
,,,0.000000029040,   0.09840,
,,,0.000000029080,   0.09840,
,,,0.000000029120,   0.09840,
,,,0.000000029160,   0.09840,
,,,0.000000029200,   0.09840,
,,,0.000000029240,   0.09840,
,,,0.000000029280,   0.09840,
,,,0.000000029320,   0.09840,
,,,0.000000029360,   0.09840,
,,,0.000000029400,   0.09840,
,,,0.000000029440,   0.09840,
,,,0.000000029480,   0.09920,
,,,0.000000029520,   0.09920,
,,,0.000000029560,   0.09920,
,,,0.000000029600,   0.09920,
,,,0.000000029640,   0.09920,
,,,0.000000029680,   0.09920,
,,,0.000000029720,   0.09920,
,,,0.000000029760,   0.09920,
,,,0.000000029800,   0.09920,
,,,0.000000029840,   0.09920,
,,,0.000000029880,   0.09920,
,,,0.000000029920,   0.09920,
,,,0.000000029960,   0.09920,
,,,0.000000030000,   0.09920,
,,,0.000000030040,   0.09920,
,,,0.000000030080,   0.09920,
,,,0.000000030120,   0.10000,
,,,0.000000030160,   0.10000,
,,,0.000000030200,   0.10000,
,,,0.000000030240,   0.10000,
,,,0.000000030280,   0.10000,
,,,0.000000030320,   0.10000,
,,,0.000000030360,   0.10000,
,,,0.000000030400,   0.10000,
,,,0.000000030440,   0.10000,
,,,0.000000030480,   0.10000,
,,,0.000000030520,   0.10000,
,,,0.000000030560,   0.10000,
,,,0.000000030600,   0.10000,
,,,0.000000030640,   0.10000,
,,,0.000000030680,   0.10000,
,,,0.000000030720,   0.10000,
,,,0.000000030760,   0.10000,
,,,0.000000030800,   0.10000,
,,,0.000000030840,   0.10000,
,,,0.000000030880,   0.10000,
,,,0.000000030920,   0.10080,
,,,0.000000030960,   0.10080,
,,,0.000000031000,   0.10080,
,,,0.000000031040,   0.10080,
,,,0.000000031080,   0.10080,
,,,0.000000031120,   0.10080,
,,,0.000000031160,   0.10080,
,,,0.000000031200,   0.10080,
,,,0.000000031240,   0.10080,
,,,0.000000031280,   0.10080,
,,,0.000000031320,   0.10080,
,,,0.000000031360,   0.10080,
,,,0.000000031400,   0.10080,
,,,0.000000031440,   0.10080,
,,,0.000000031480,   0.10080,
,,,0.000000031520,   0.10080,
,,,0.000000031560,   0.10080,
,,,0.000000031600,   0.10080,
,,,0.000000031640,   0.10080,
,,,0.000000031680,   0.10080,
,,,0.000000031720,   0.10080,
,,,0.000000031760,   0.10080,
,,,0.000000031800,   0.10080,
,,,0.000000031840,   0.10080,
,,,0.000000031880,   0.10080,
,,,0.000000031920,   0.10080,
,,,0.000000031960,   0.10160,
,,,0.000000032000,   0.10160,
,,,0.000000032040,   0.10160,
,,,0.000000032080,   0.10160,
,,,0.000000032120,   0.10160,
,,,0.000000032160,   0.10160,
,,,0.000000032200,   0.10160,
,,,0.000000032240,   0.10160,
,,,0.000000032280,   0.10160,
,,,0.000000032320,   0.10160,
,,,0.000000032360,   0.10160,
,,,0.000000032400,   0.10160,
,,,0.000000032440,   0.10160,
,,,0.000000032480,   0.10160,
,,,0.000000032520,   0.10160,
,,,0.000000032560,   0.10160,
,,,0.000000032600,   0.10160,
,,,0.000000032640,   0.10160,
,,,0.000000032680,   0.10160,
,,,0.000000032720,   0.10160,
,,,0.000000032760,   0.10160,
,,,0.000000032800,   0.10160,
,,,0.000000032840,   0.10160,
,,,0.000000032880,   0.10160,
,,,0.000000032920,   0.10160,
,,,0.000000032960,   0.10160,
,,,0.000000033000,   0.10160,
,,,0.000000033040,   0.10160,
,,,0.000000033080,   0.10160,
,,,0.000000033120,   0.10160,
,,,0.000000033160,   0.10160,
,,,0.000000033200,   0.10160,
,,,0.000000033240,   0.10160,
,,,0.000000033280,   0.10160,
,,,0.000000033320,   0.10160,
,,,0.000000033360,   0.10160,
,,,0.000000033400,   0.10160,
,,,0.000000033440,   0.10160,
,,,0.000000033480,   0.10160,
,,,0.000000033520,   0.10160,
,,,0.000000033560,   0.10160,
,,,0.000000033600,   0.10160,
,,,0.000000033640,   0.10160,
,,,0.000000033680,   0.10160,
,,,0.000000033720,   0.10160,
,,,0.000000033760,   0.10160,
,,,0.000000033800,   0.10160,
,,,0.000000033840,   0.10160,
,,,0.000000033880,   0.10160,
,,,0.000000033920,   0.10160,
,,,0.000000033960,   0.10160,
,,,0.000000034000,   0.10160,
,,,0.000000034040,   0.10160,
,,,0.000000034080,   0.10160,
,,,0.000000034120,   0.10160,
,,,0.000000034160,   0.10160,
,,,0.000000034200,   0.10160,
,,,0.000000034240,   0.10160,
,,,0.000000034280,   0.10160,
,,,0.000000034320,   0.10160,
,,,0.000000034360,   0.10160,
,,,0.000000034400,   0.10160,
,,,0.000000034440,   0.10160,
,,,0.000000034480,   0.10160,
,,,0.000000034520,   0.10160,
,,,0.000000034560,   0.10160,
,,,0.000000034600,   0.10160,
,,,0.000000034640,   0.10160,
,,,0.000000034680,   0.10160,
,,,0.000000034720,   0.10160,
,,,0.000000034760,   0.10160,
,,,0.000000034800,   0.10160,
,,,0.000000034840,   0.10160,
,,,0.000000034880,   0.10160,
,,,0.000000034920,   0.10160,
,,,0.000000034960,   0.10160,
,,,0.000000035000,   0.10160,
,,,0.000000035040,   0.10160,
,,,0.000000035080,   0.10160,
,,,0.000000035120,   0.10160,
,,,0.000000035160,   0.10160,
,,,0.000000035200,   0.10160,
,,,0.000000035240,   0.10160,
,,,0.000000035280,   0.10160,
,,,0.000000035320,   0.10160,
,,,0.000000035360,   0.10160,
,,,0.000000035400,   0.10160,
,,,0.000000035440,   0.10160,
,,,0.000000035480,   0.10160,
,,,0.000000035520,   0.10160,
,,,0.000000035560,   0.10160,
,,,0.000000035600,   0.10160,
,,,0.000000035640,   0.10160,
,,,0.000000035680,   0.10160,
,,,0.000000035720,   0.10160,
,,,0.000000035760,   0.10160,
,,,0.000000035800,   0.10160,
,,,0.000000035840,   0.10160,
,,,0.000000035880,   0.10160,
,,,0.000000035920,   0.10080,
,,,0.000000035960,   0.10080,
,,,0.000000036000,   0.10080,
,,,0.000000036040,   0.10080,
,,,0.000000036080,   0.10080,
,,,0.000000036120,   0.10080,
,,,0.000000036160,   0.10080,
,,,0.000000036200,   0.10080,
,,,0.000000036240,   0.10080,
,,,0.000000036280,   0.10080,
,,,0.000000036320,   0.10080,
,,,0.000000036360,   0.10080,
,,,0.000000036400,   0.10080,
,,,0.000000036440,   0.10080,
,,,0.000000036480,   0.10080,
,,,0.000000036520,   0.10080,
,,,0.000000036560,   0.10080,
,,,0.000000036600,   0.10080,
,,,0.000000036640,   0.10080,
,,,0.000000036680,   0.10080,
,,,0.000000036720,   0.10080,
,,,0.000000036760,   0.10080,
,,,0.000000036800,   0.10080,
,,,0.000000036840,   0.10080,
,,,0.000000036880,   0.10080,
,,,0.000000036920,   0.10080,
,,,0.000000036960,   0.10080,
,,,0.000000037000,   0.10080,
,,,0.000000037040,   0.10080,
,,,0.000000037080,   0.10080,
,,,0.000000037120,   0.10080,
,,,0.000000037160,   0.10000,
,,,0.000000037200,   0.10000,
,,,0.000000037240,   0.10000,
,,,0.000000037280,   0.10000,
,,,0.000000037320,   0.10000,
,,,0.000000037360,   0.10000,
,,,0.000000037400,   0.10000,
,,,0.000000037440,   0.10000,
,,,0.000000037480,   0.10000,
,,,0.000000037520,   0.10000,
,,,0.000000037560,   0.10000,
,,,0.000000037600,   0.10000,
,,,0.000000037640,   0.10000,
,,,0.000000037680,   0.10000,
,,,0.000000037720,   0.10000,
,,,0.000000037760,   0.10000,
,,,0.000000037800,   0.10000,
,,,0.000000037840,   0.10000,
,,,0.000000037880,   0.10000,
,,,0.000000037920,   0.10000,
,,,0.000000037960,   0.10000,
,,,0.000000038000,   0.10000,
,,,0.000000038040,   0.10000,
,,,0.000000038080,   0.10000,
,,,0.000000038120,   0.09920,
,,,0.000000038160,   0.09920,
,,,0.000000038200,   0.09920,
,,,0.000000038240,   0.09920,
,,,0.000000038280,   0.09920,
,,,0.000000038320,   0.09920,
,,,0.000000038360,   0.09920,
,,,0.000000038400,   0.09920,
,,,0.000000038440,   0.09920,
,,,0.000000038480,   0.09920,
,,,0.000000038520,   0.09920,
