eelab/lab1/ALL0011/F0011CH2.CSV

Record Length,2.500000e+03,,  -0.000003200000,  -3.44000,
Sample Interval,4.000000e-09,,  -0.000003196000,  -3.44000,
Trigger Point,8.000000000000e+02,,  -0.000003192000,  -3.44000,
,,,  -0.000003188000,  -3.44000,
,,,  -0.000003184000,  -3.44000,
,,,  -0.000003180000,  -3.44000,
Source,CH2,,  -0.000003176000,  -3.44000,
Vertical Units,V,,  -0.000003172000,  -3.44000,
Vertical Scale,2.000000e+00,,  -0.000003168000,  -3.44000,
Vertical Offset,-2.480000e+00,,  -0.000003164000,  -3.44000,
Horizontal Units,s,,  -0.000003160000,  -3.44000,
Horizontal Scale,1.000000e-06,,  -0.000003156000,  -3.44000,
Pt Fmt,Y,,  -0.000003152000,  -3.44000,
Yzero,0.000000e+00,,  -0.000003148000,  -3.44000,
Probe Atten,1.000000e+01,,  -0.000003144000,  -3.44000,
Model Number,TDS2014B,,  -0.000003140000,  -3.44000,
Serial Number,C010105,,  -0.000003136000,  -3.44000,
Firmware Version,FV:v22.16,,  -0.000003132000,  -3.44000,
,,,-00.000003128000,  -3.44000,
,,,-00.000003124000,  -3.44000,
,,,-00.000003120000,  -3.44000,
,,,-00.000003116000,  -3.44000,
,,,-00.000003112000,  -3.44000,
,,,-00.000003108000,  -3.44000,
,,,-00.000003104000,  -3.44000,
,,,-00.000003100000,  -3.44000,
,,,-00.000003096000,  -3.44000,
,,,-00.000003092000,  -3.44000,
,,,-00.000003088000,  -3.44000,
,,,-00.000003084000,  -3.44000,
,,,-00.000003080000,  -3.44000,
,,,-00.000003076000,  -3.44000,
,,,-00.000003072000,  -3.44000,
,,,-00.000003068000,  -3.44000,
,,,-00.000003064000,  -3.44000,
,,,-00.000003060000,  -3.44000,
,,,-00.000003056000,  -3.44000,
,,,-00.000003052000,  -3.44000,
,,,-00.000003048000,  -3.44000,
,,,-00.000003044000,  -3.44000,
,,,-00.000003040000,  -3.52000,
,,,-00.000003036000,  -3.44000,
,,,-00.000003032000,  -3.44000,
,,,-00.000003028000,  -3.44000,
,,,-00.000003024000,  -3.52000,
,,,-00.000003020000,  -3.44000,
,,,-00.000003016000,  -3.44000,
,,,-00.000003012000,  -3.44000,
,,,-00.000003008000,  -3.44000,
,,,-00.000003004000,  -3.44000,
,,,-00.000003000000,  -3.44000,
,,,-00.000002996000,  -3.44000,
,,,-00.000002992000,  -3.44000,
,,,-00.000002988000,  -3.44000,
,,,-00.000002984000,  -3.44000,
,,,-00.000002980000,  -3.44000,
,,,-00.000002976000,  -3.44000,
,,,-00.000002972000,  -3.44000,
,,,-00.000002968000,  -3.44000,
,,,-00.000002964000,  -3.44000,
,,,-00.000002960000,  -3.44000,
,,,-00.000002956000,  -3.44000,
,,,-00.000002952000,  -3.44000,
,,,-00.000002948000,  -3.44000,
,,,-00.000002944000,  -3.44000,
,,,-00.000002940000,  -3.44000,
,,,-00.000002936000,  -3.44000,
,,,-00.000002932000,  -3.44000,
,,,-00.000002928000,  -3.44000,
,,,-00.000002924000,  -3.52000,
,,,-00.000002920000,  -3.44000,
,,,-00.000002916000,  -3.44000,
,,,-00.000002912000,  -3.44000,
,,,-00.000002908000,  -3.52000,
,,,-00.000002904000,  -3.44000,
,,,-00.000002900000,  -3.44000,
,,,-00.000002896000,  -3.44000,
,,,-00.000002892000,  -3.52000,
,,,-00.000002888000,  -3.44000,
,,,-00.000002884000,  -3.44000,
,,,-00.000002880000,  -3.44000,
,,,-00.000002876000,  -3.44000,
,,,-00.000002872000,  -3.44000,
,,,-00.000002868000,  -3.44000,
,,,-00.000002864000,  -3.44000,
,,,-00.000002860000,  -3.44000,
,,,-00.000002856000,  -3.44000,
,,,-00.000002852000,  -3.44000,
,,,-00.000002848000,  -3.44000,
,,,-00.000002844000,  -3.44000,
,,,-00.000002840000,  -3.44000,
,,,-00.000002836000,  -3.44000,
,,,-00.000002832000,  -3.44000,
,,,-00.000002828000,  -3.44000,
,,,-00.000002824000,  -3.44000,
,,,-00.000002820000,  -3.44000,
,,,-00.000002816000,  -3.44000,
,,,-00.000002812000,  -3.44000,
,,,-00.000002808000,  -3.44000,
,,,-00.000002804000,  -3.44000,
,,,-00.000002800000,  -3.44000,
,,,-00.000002796000,  -3.44000,
,,,-00.000002792000,  -3.44000,
,,,-00.000002788000,  -3.44000,
,,,-00.000002784000,  -3.44000,
,,,-00.000002780000,  -3.44000,
,,,-00.000002776000,  -3.52000,
,,,-00.000002772000,  -3.44000,
,,,-00.000002768000,  -3.44000,
,,,-00.000002764000,  -3.44000,
,,,-00.000002760000,  -3.52000,
,,,-00.000002756000,  -3.44000,
,,,-00.000002752000,  -3.44000,
,,,-00.000002748000,  -3.44000,
,,,-00.000002744000,  -3.44000,
,,,-00.000002740000,  -3.44000,
,,,-00.000002736000,  -3.44000,
,,,-00.000002732000,  -3.44000,
,,,-00.000002728000,  -3.44000,
,,,-00.000002724000,  -3.44000,
,,,-00.000002720000,  -3.44000,
,,,-00.000002716000,  -3.44000,
,,,-00.000002712000,  -3.44000,
,,,-00.000002708000,  -3.44000,
,,,-00.000002704000,  -3.44000,
,,,-00.000002700000,  -3.44000,
,,,-00.000002696000,  -3.44000,
,,,-00.000002692000,  -3.44000,
,,,-00.000002688000,  -3.44000,
,,,-00.000002684000,  -3.44000,
,,,-00.000002680000,  -3.44000,
,,,-00.000002676000,  -3.44000,
,,,-00.000002672000,  -3.44000,
,,,-00.000002668000,  -3.44000,
,,,-00.000002664000,  -3.44000,
,,,-00.000002660000,  -3.52000,
,,,-00.000002656000,  -3.44000,
,,,-00.000002652000,  -3.44000,
,,,-00.000002648000,  -3.44000,
,,,-00.000002644000,  -3.52000,
,,,-00.000002640000,  -3.44000,
,,,-00.000002636000,  -3.44000,
,,,-00.000002632000,  -3.44000,
,,,-00.000002628000,  -3.52000,
,,,-00.000002624000,  -3.44000,
,,,-00.000002620000,  -3.44000,
,,,-00.000002616000,  -3.44000,
,,,-00.000002612000,  -3.44000,
,,,-00.000002608000,  -3.44000,
,,,-00.000002604000,  -3.44000,
,,,-00.000002600000,  -3.44000,
,,,-00.000002596000,  -3.44000,
,,,-00.000002592000,  -3.44000,
,,,-00.000002588000,  -3.44000,
,,,-00.000002584000,  -3.44000,
,,,-00.000002580000,  -3.44000,
,,,-00.000002576000,  -3.44000,
,,,-00.000002572000,  -3.44000,
,,,-00.000002568000,  -3.44000,
,,,-00.000002564000,  -3.44000,
,,,-00.000002560000,  -3.44000,
,,,-00.000002556000,  -3.44000,
,,,-00.000002552000,  -3.44000,
,,,-00.000002548000,  -3.44000,
,,,-00.000002544000,  -3.44000,
,,,-00.000002540000,  -3.44000,
,,,-00.000002536000,  -3.44000,
,,,-00.000002532000,  -3.44000,
,,,-00.000002528000,  -3.52000,
,,,-00.000002524000,  -3.44000,
,,,-00.000002520000,  -3.44000,
,,,-00.000002516000,  -3.44000,
,,,-00.000002512000,  -3.52000,
,,,-00.000002508000,  -3.44000,
,,,-00.000002504000,  -3.44000,
,,,-00.000002500000,  -3.44000,
,,,-00.000002496000,  -3.52000,
,,,-00.000002492000,  -3.44000,
,,,-00.000002488000,  -3.44000,
,,,-00.000002484000,  -3.44000,
,,,-00.000002480000,  -3.44000,
,,,-00.000002476000,  -3.44000,
,,,-00.000002472000,  -3.44000,
,,,-00.000002468000,  -3.44000,
,,,-00.000002464000,  -3.44000,
,,,-00.000002460000,  -3.44000,
,,,-00.000002456000,  -3.36000,
,,,-00.000002452000,  -3.28000,
,,,-00.000002448000,  -3.20000,
,,,-00.000002444000,  -3.04000,
,,,-00.000002440000,  -2.88000,
,,,-00.000002436000,  -2.72000,
,,,-00.000002432000,  -2.72000,
,,,-00.000002428000,  -2.64000,
,,,-00.000002424000,  -2.64000,
,,,-00.000002420000,  -2.72000,
,,,-00.000002416000,  -2.80000,
,,,-00.000002412000,  -2.88000,
,,,-00.000002408000,  -2.80000,
,,,-00.000002404000,  -2.80000,
,,,-00.000002400000,  -2.88000,
,,,-00.000002396000,  -2.96000,
,,,-00.000002392000,  -3.12000,
,,,-00.000002388000,  -3.20000,
,,,-00.000002384000,  -3.28000,
,,,-00.000002380000,  -3.36000,
,,,-00.000002376000,  -3.36000,
,,,-00.000002372000,  -3.44000,
,,,-00.000002368000,  -3.44000,
,,,-00.000002364000,  -3.52000,
,,,-00.000002360000,  -3.52000,
,,,-00.000002356000,  -3.52000,
,,,-00.000002352000,  -3.44000,
,,,-00.000002348000,  -3.44000,
,,,-00.000002344000,  -3.36000,
,,,-00.000002340000,  -3.28000,
,,,-00.000002336000,  -3.20000,
,,,-00.000002332000,  -3.20000,
,,,-00.000002328000,  -3.20000,
,,,-00.000002324000,  -3.12000,
,,,-00.000002320000,  -3.04000,
,,,-00.000002316000,  -3.04000,
,,,-00.000002312000,  -3.04000,
,,,-00.000002308000,  -2.96000,
,,,-00.000002304000,  -2.96000,
,,,-00.000002300000,  -3.04000,
,,,-00.000002296000,  -3.12000,
,,,-00.000002292000,  -3.12000,
,,,-00.000002288000,  -3.12000,
,,,-00.000002284000,  -3.12000,
,,,-00.000002280000,  -3.20000,
,,,-00.000002276000,  -3.20000,
,,,-00.000002272000,  -3.20000,
,,,-00.000002268000,  -3.20000,
,,,-00.000002264000,  -3.20000,
,,,-00.000002260000,  -3.12000,
,,,-00.000002256000,  -3.12000,
,,,-00.000002252000,  -3.04000,
,,,-00.000002248000,  -3.04000,
,,,-00.000002244000,  -2.96000,
,,,-00.000002240000,  -2.96000,
,,,-00.000002236000,  -2.88000,
,,,-00.000002232000,  -2.88000,
,,,-00.000002228000,  -2.88000,
,,,-00.000002224000,  -2.88000,
,,,-00.000002220000,  -2.80000,
,,,-00.000002216000,  -2.88000,
,,,-00.000002212000,  -2.88000,
,,,-00.000002208000,  -2.88000,
,,,-00.000002204000,  -2.88000,
,,,-00.000002200000,  -2.96000,
,,,-00.000002196000,  -2.96000,
,,,-00.000002192000,  -2.96000,
,,,-00.000002188000,  -2.96000,
,,,-00.000002184000,  -2.96000,
,,,-00.000002180000,  -2.96000,
,,,-00.000002176000,  -2.96000,
,,,-00.000002172000,  -2.88000,
,,,-00.000002168000,  -2.88000,
,,,-00.000002164000,  -2.88000,
,,,-00.000002160000,  -2.80000,
,,,-00.000002156000,  -2.80000,
,,,-00.000002152000,  -2.72000,
,,,-00.000002148000,  -2.72000,
,,,-00.000002144000,  -2.64000,
,,,-00.000002140000,  -2.64000,
,,,-00.000002136000,  -2.64000,
,,,-00.000002132000,  -2.72000,
,,,-00.000002128000,  -2.64000,
,,,-00.000002124000,  -2.64000,
,,,-00.000002120000,  -2.64000,
,,,-00.000002116000,  -2.72000,
,,,-00.000002112000,  -2.72000,
,,,-00.000002108000,  -2.72000,
,,,-00.000002104000,  -2.72000,
,,,-00.000002100000,  -2.80000,
,,,-00.000002096000,  -2.72000,
,,,-00.000002092000,  -2.72000,
,,,-00.000002088000,  -2.72000,
,,,-00.000002084000,  -2.72000,
,,,-00.000002080000,  -2.72000,
,,,-00.000002076000,  -2.72000,
,,,-00.000002072000,  -2.64000,
,,,-00.000002068000,  -2.64000,
,,,-00.000002064000,  -2.56000,
,,,-00.000002060000,  -2.56000,
,,,-00.000002056000,  -2.56000,
,,,-00.000002052000,  -2.56000,
,,,-00.000002048000,  -2.48000,
,,,-00.000002044000,  -2.48000,
,,,-00.000002040000,  -2.48000,
,,,-00.000002036000,  -2.48000,
,,,-00.000002032000,  -2.48000,
,,,-00.000002028000,  -2.48000,
,,,-00.000002024000,  -2.48000,
,,,-00.000002020000,  -2.48000,
,,,-00.000002016000,  -2.56000,
,,,-00.000002012000,  -2.48000,
,,,-00.000002008000,  -2.48000,
,,,-00.000002004000,  -2.48000,
,,,-00.000002000000,  -2.56000,
,,,-00.000001996000,  -2.48000,
,,,-00.000001992000,  -2.48000,
,,,-00.000001988000,  -2.48000,
,,,-00.000001984000,  -2.48000,
,,,-00.000001980000,  -2.40000,
,,,-00.000001976000,  -2.40000,
,,,-00.000001972000,  -2.40000,
,,,-00.000001968000,  -2.40000,
,,,-00.000001964000,  -2.40000,
,,,-00.000001960000,  -2.40000,
,,,-00.000001956000,  -2.32000,
,,,-00.000001952000,  -2.40000,
,,,-00.000001948000,  -2.32000,
,,,-00.000001944000,  -2.32000,
,,,-00.000001940000,  -2.32000,
,,,-00.000001936000,  -2.32000,
,,,-00.000001932000,  -2.32000,
,,,-00.000001928000,  -2.32000,
,,,-00.000001924000,  -2.32000,
,,,-00.000001920000,  -2.32000,
,,,-00.000001916000,  -2.32000,
,,,-00.000001912000,  -2.32000,
,,,-00.000001908000,  -2.24000,
,,,-00.000001904000,  -2.32000,
,,,-00.000001900000,  -2.32000,
,,,-00.000001896000,  -2.24000,
,,,-00.000001892000,  -2.24000,
,,,-00.000001888000,  -2.24000,
,,,-00.000001884000,  -2.24000,
,,,-00.000001880000,  -2.24000,
,,,-00.000001876000,  -2.24000,
,,,-00.000001872000,  -2.16000,
,,,-00.000001868000,  -2.24000,
,,,-00.000001864000,  -2.16000,
,,,-00.000001860000,  -2.16000,
,,,-00.000001856000,  -2.16000,
,,,-00.000001852000,  -2.16000,
,,,-00.000001848000,  -2.16000,
,,,-00.000001844000,  -2.16000,
,,,-00.000001840000,  -2.16000,
,,,-00.000001836000,  -2.16000,
,,,-00.000001832000,  -2.16000,
,,,-00.000001828000,  -2.16000,
,,,-00.000001824000,  -2.08000,
,,,-00.000001820000,  -2.16000,
,,,-00.000001816000,  -2.08000,
,,,-00.000001812000,  -2.08000,
,,,-00.000001808000,  -2.08000,
,,,-00.000001804000,  -2.08000,
,,,-00.000001800000,  -2.08000,
,,,-00.000001796000,  -2.08000,
,,,-00.000001792000,  -2.00000,
,,,-00.000001788000,  -2.00000,
,,,-00.000001784000,  -2.00000,
,,,-00.000001780000,  -2.00000,
,,,-00.000001776000,  -2.00000,
,,,-00.000001772000,  -2.00000,
,,,-00.000001768000,  -2.00000,
,,,-00.000001764000,  -2.00000,
,,,-00.000001760000,  -2.00000,
,,,-00.000001756000,  -2.00000,
,,,-00.000001752000,  -2.00000,
,,,-00.000001748000,  -2.00000,
,,,-00.000001744000,  -1.92000,
,,,-00.000001740000,  -2.00000,
,,,-00.000001736000,  -2.00000,
,,,-00.000001732000,  -1.92000,
,,,-00.000001728000,  -1.92000,
,,,-00.000001724000,  -1.92000,
,,,-00.000001720000,  -1.92000,
,,,-00.000001716000,  -1.92000,
,,,-00.000001712000,  -1.92000,
,,,-00.000001708000,  -1.84000,
,,,-00.000001704000,  -1.92000,
,,,-00.000001700000,  -1.84000,
,,,-00.000001696000,  -1.84000,
,,,-00.000001692000,  -1.84000,
,,,-00.000001688000,  -1.84000,
,,,-00.000001684000,  -1.84000,
,,,-00.000001680000,  -1.84000,
,,,-00.000001676000,  -1.76000,
,,,-00.000001672000,  -1.84000,
,,,-00.000001668000,  -1.84000,
,,,-00.000001664000,  -1.76000,
,,,-00.000001660000,  -1.76000,
,,,-00.000001656000,  -1.76000,
,,,-00.000001652000,  -1.76000,
,,,-00.000001648000,  -1.76000,
,,,-00.000001644000,  -1.76000,
,,,-00.000001640000,  -1.76000,
,,,-00.000001636000,  -1.76000,
,,,-00.000001632000,  -1.76000,
,,,-00.000001628000,  -1.76000,
,,,-00.000001624000,  -1.76000,
,,,-00.000001620000,  -1.76000,
,,,-00.000001616000,  -1.68000,
,,,-00.000001612000,  -1.68000,
,,,-00.000001608000,  -1.68000,
,,,-00.000001604000,  -1.76000,
,,,-00.000001600000,  -1.68000,
,,,-00.000001596000,  -1.68000,
,,,-00.000001592000,  -1.68000,
,,,-00.000001588000,  -1.68000,
,,,-00.000001584000,  -1.60000,
,,,-00.000001580000,  -1.60000,
,,,-00.000001576000,  -1.60000,
,,,-00.000001572000,  -1.68000,
,,,-00.000001568000,  -1.60000,
,,,-00.000001564000,  -1.60000,
,,,-00.000001560000,  -1.60000,
,,,-00.000001556000,  -1.60000,
,,,-00.000001552000,  -1.60000,
,,,-00.000001548000,  -1.60000,
,,,-00.000001544000,  -1.60000,
,,,-00.000001540000,  -1.60000,
,,,-00.000001536000,  -1.60000,
,,,-00.000001532000,  -1.60000,
,,,-00.000001528000,  -1.52000,
,,,-00.000001524000,  -1.60000,
,,,-00.000001520000,  -1.60000,
,,,-00.000001516000,  -1.52000,
,,,-00.000001512000,  -1.52000,
,,,-00.000001508000,  -1.52000,
,,,-00.000001504000,  -1.52000,
,,,-00.000001500000,  -1.52000,
,,,-00.000001496000,  -1.52000,
,,,-00.000001492000,  -1.52000,
,,,-00.000001488000,  -1.52000,
,,,-00.000001484000,  -1.44000,
,,,-00.000001480000,  -1.44000,
,,,-00.000001476000,  -1.44000,
,,,-00.000001472000,  -1.52000,
,,,-00.000001468000,  -1.44000,
,,,-00.000001464000,  -1.44000,
,,,-00.000001460000,  -1.44000,
,,,-00.000001456000,  -1.44000,
,,,-00.000001452000,  -1.44000,
,,,-00.000001448000,  -1.44000,
,,,-00.000001444000,  -1.36000,
,,,-00.000001440000,  -1.44000,
,,,-00.000001436000,  -1.36000,
,,,-00.000001432000,  -1.36000,
,,,-00.000001428000,  -1.36000,
,,,-00.000001424000,  -1.36000,
,,,-00.000001420000,  -1.36000,
,,,-00.000001416000,  -1.36000,
,,,-00.000001412000,  -1.36000,
,,,-00.000001408000,  -1.36000,
,,,-00.000001404000,  -1.36000,
,,,-00.000001400000,  -1.36000,
,,,-00.000001396000,  -1.28000,
,,,-00.000001392000,  -1.36000,
,,,-00.000001388000,  -1.36000,
,,,-00.000001384000,  -1.28000,
,,,-00.000001380000,  -1.28000,
,,,-00.000001376000,  -1.28000,
,,,-00.000001372000,  -1.28000,
,,,-00.000001368000,  -1.28000,
,,,-00.000001364000,  -1.28000,
,,,-00.000001360000,  -1.28000,
,,,-00.000001356000,  -1.28000,
,,,-00.000001352000,  -1.20000,
,,,-00.000001348000,  -1.20000,
,,,-00.000001344000,  -1.20000,
,,,-00.000001340000,  -1.28000,
,,,-00.000001336000,  -1.20000,
,,,-00.000001332000,  -1.20000,
,,,-00.000001328000,  -1.20000,
,,,-00.000001324000,  -1.20000,
,,,-00.000001320000,  -1.20000,
,,,-00.000001316000,  -1.20000,
,,,-00.000001312000,  -1.20000,
,,,-00.000001308000,  -1.20000,
,,,-00.000001304000,  -1.12000,
,,,-00.000001300000,  -1.20000,
,,,-00.000001296000,  -1.12000,
,,,-00.000001292000,  -1.20000,
,,,-00.000001288000,  -1.12000,
,,,-00.000001284000,  -1.12000,
,,,-00.000001280000,  -1.12000,
,,,-00.000001276000,  -1.12000,
,,,-00.000001272000,  -1.12000,
,,,-00.000001268000,  -1.12000,
,,,-00.000001264000,  -1.12000,
,,,-00.000001260000,  -1.12000,
,,,-00.000001256000,  -1.12000,
,,,-00.000001252000,  -1.12000,
,,,-00.000001248000,  -1.04000,
,,,-00.000001244000,  -1.12000,
,,,-00.000001240000,  -1.12000,
,,,-00.000001236000,  -1.04000,
,,,-00.000001232000,  -1.04000,
,,,-00.000001228000,  -1.04000,
,,,-00.000001224000,  -1.04000,
,,,-00.000001220000,  -1.04000,
,,,-00.000001216000,  -1.04000,
,,,-00.000001212000,  -1.04000,
,,,-00.000001208000,  -1.04000,
,,,-00.000001204000,  -0.96000,
,,,-00.000001200000,  -0.96000,
,,,-00.000001196000,  -0.96000,
,,,-00.000001192000,  -1.04000,
,,,-00.000001188000,  -0.96000,
,,,-00.000001184000,  -0.96000,
,,,-00.000001180000,  -0.96000,
,,,-00.000001176000,  -0.96000,
,,,-00.000001172000,  -0.96000,
,,,-00.000001168000,  -0.96000,
,,,-00.000001164000,  -0.96000,
,,,-00.000001160000,  -0.96000,
,,,-00.000001156000,  -0.96000,
,,,-00.000001152000,  -0.96000,
,,,-00.000001148000,  -0.88000,
,,,-00.000001144000,  -0.96000,
,,,-00.000001140000,  -0.88000,
,,,-00.000001136000,  -0.88000,
,,,-00.000001132000,  -0.88000,
,,,-00.000001128000,  -0.88000,
,,,-00.000001124000,  -0.88000,
,,,-00.000001120000,  -0.88000,
,,,-00.000001116000,  -0.88000,
,,,-00.000001112000,  -0.88000,
,,,-00.000001108000,  -0.88000,
,,,-00.000001104000,  -0.88000,
,,,-00.000001100000,  -0.80000,
,,,-00.000001096000,  -0.88000,
,,,-00.000001092000,  -0.88000,
,,,-00.000001088000,  -0.80000,
,,,-00.000001084000,  -0.80000,
,,,-00.000001080000,  -0.80000,
,,,-00.000001076000,  -0.80000,
,,,-00.000001072000,  -0.80000,
,,,-00.000001068000,  -0.80000,
,,,-00.000001064000,  -0.80000,
,,,-00.000001060000,  -0.80000,
,,,-00.000001056000,  -0.80000,
,,,-00.000001052000,  -0.80000,
,,,-00.000001048000,  -0.80000,
,,,-00.000001044000,  -0.80000,
,,,-00.000001040000,  -0.72000,
,,,-00.000001036000,  -0.72000,
,,,-00.000001032000,  -0.72000,
,,,-00.000001028000,  -0.80000,
,,,-00.000001024000,  -0.72000,
,,,-00.000001020000,  -0.72000,
,,,-00.000001016000,  -0.72000,
,,,-00.000001012000,  -0.72000,
,,,-00.000001008000,  -0.72000,
,,,-00.000001004000,  -0.72000,
,,,-00.000001000000,  -0.72000,
,,,-00.000000996000,  -0.72000,
,,,-00.000000992000,  -0.72000,
,,,-00.000000988000,  -0.72000,
,,,-00.000000984000,  -0.64000,
,,,-00.000000980000,  -0.64000,
,,,-00.000000976000,  -0.72000,
,,,-00.000000972000,  -0.64000,
,,,-00.000000968000,  -0.64000,
,,,-00.000000964000,  -0.64000,
,,,-00.000000960000,  -0.64000,
,,,-00.000000956000,  -0.64000,
,,,-00.000000952000,  -0.64000,
,,,-00.000000948000,  -0.64000,
,,,-00.000000944000,  -0.64000,
,,,-00.000000940000,  -0.64000,
,,,-00.000000936000,  -0.56000,
,,,-00.000000932000,  -0.56000,
,,,-00.000000928000,  -0.64000,
,,,-00.000000924000,  -0.56000,
,,,-00.000000920000,  -0.56000,
,,,-00.000000916000,  -0.56000,
,,,-00.000000912000,  -0.64000,
,,,-00.000000908000,  -0.56000,
,,,-00.000000904000,  -0.56000,
,,,-00.000000900000,  -0.56000,
,,,-00.000000896000,  -0.56000,
,,,-00.000000892000,  -0.56000,
,,,-00.000000888000,  -0.56000,
,,,-00.000000884000,  -0.56000,
,,,-00.000000880000,  -0.56000,
,,,-00.000000876000,  -0.56000,
,,,-00.000000872000,  -0.48000,
,,,-00.000000868000,  -0.48000,
,,,-00.000000864000,  -0.48000,
,,,-00.000000860000,  -0.48000,
,,,-00.000000856000,  -0.48000,
,,,-00.000000852000,  -0.48000,
,,,-00.000000848000,  -0.48000,
,,,-00.000000844000,  -0.48000,
,,,-00.000000840000,  -0.48000,
,,,-00.000000836000,  -0.48000,
,,,-00.000000832000,  -0.48000,
,,,-00.000000828000,  -0.48000,
,,,-00.000000824000,  -0.40000,
,,,-00.000000820000,  -0.40000,
,,,-00.000000816000,  -0.40000,
,,,-00.000000812000,  -0.48000,
,,,-00.000000808000,  -0.40000,
,,,-00.000000804000,  -0.40000,
,,,-00.000000800000,  -0.40000,
,,,-00.000000796000,  -0.48000,
,,,-00.000000792000,  -0.40000,
,,,-00.000000788000,  -0.40000,
,,,-00.000000784000,  -0.40000,
,,,-00.000000780000,  -0.40000,
,,,-00.000000776000,  -0.40000,
,,,-00.000000772000,  -0.40000,
,,,-00.000000768000,  -0.40000,
,,,-00.000000764000,  -0.40000,
,,,-00.000000760000,  -0.32000,
,,,-00.000000756000,  -0.32000,
,,,-00.000000752000,  -0.32000,
,,,-00.000000748000,  -0.40000,
