eelab/lab2/ALL0022/F0022CH1.CSV

Record Length,2.500000e+03,,  -0.000000056000,  -0.40000,
Sample Interval,2.000000e-10,,  -0.000000055800,  -0.20000,
Trigger Point,2.800000000000e+02,,  -0.000000055600,  -0.20000,
,,,  -0.000000055400,  -0.20000,
,,,  -0.000000055200,  -0.20000,
,,,  -0.000000055000,  -0.20000,
Source,CH1,,  -0.000000054800,  -0.20000,
Vertical Units,V,,  -0.000000054600,   0.00000,
Vertical Scale,5.000000e+00,,  -0.000000054400,  -0.20000,
Vertical Offset,1.000000e+01,,  -0.000000054200,  -0.20000,
Horizontal Units,s,,  -0.000000054000,  -0.20000,
Horizontal Scale,5.000000e-08,,  -0.000000053800,  -0.20000,
Pt Fmt,Y,,  -0.000000053600,  -0.20000,
Yzero,0.000000e+00,,  -0.000000053400,  -0.20000,
Probe Atten,1.000000e+00,,  -0.000000053200,  -0.20000,
Model Number,TDS2014B,,  -0.000000053000,  -0.20000,
Serial Number,C010105,,  -0.000000052800,  -0.20000,
Firmware Version,FV:v22.16,,  -0.000000052600,   0.00000,
,,,-00.000000052400,   0.00000,
,,,-00.000000052200,   0.00000,
,,,-00.000000052000,   0.00000,
,,,-00.000000051800,   0.00000,
,,,-00.000000051600,   0.00000,
,,,-00.000000051400,   0.00000,
,,,-00.000000051200,   0.00000,
,,,-00.000000051000,   0.00000,
,,,-00.000000050800,   0.00000,
,,,-00.000000050600,   0.00000,
,,,-00.000000050400,  -0.20000,
,,,-00.000000050200,  -0.20000,
,,,-00.000000050000,  -0.20000,
,,,-00.000000049800,  -0.20000,
,,,-00.000000049600,  -0.20000,
,,,-00.000000049400,  -0.20000,
,,,-00.000000049200,  -0.20000,
,,,-00.000000049000,  -0.20000,
,,,-00.000000048800,  -0.20000,
,,,-00.000000048600,   0.00000,
,,,-00.000000048400,   0.00000,
,,,-00.000000048200,   0.00000,
,,,-00.000000048000,   0.00000,
,,,-00.000000047800,   0.00000,
,,,-00.000000047600,   0.00000,
,,,-00.000000047400,   0.00000,
,,,-00.000000047200,   0.00000,
,,,-00.000000047000,   0.00000,
,,,-00.000000046800,   0.20000,
,,,-00.000000046600,   0.20000,
,,,-00.000000046400,   0.00000,
,,,-00.000000046200,   0.00000,
,,,-00.000000046000,  -0.20000,
,,,-00.000000045800,  -0.20000,
,,,-00.000000045600,  -0.20000,
,,,-00.000000045400,  -0.40000,
,,,-00.000000045200,  -0.40000,
,,,-00.000000045000,  -0.40000,
,,,-00.000000044800,  -0.40000,
,,,-00.000000044600,  -0.20000,
,,,-00.000000044400,  -0.20000,
,,,-00.000000044200,  -0.20000,
,,,-00.000000044000,  -0.20000,
,,,-00.000000043800,  -0.20000,
,,,-00.000000043600,   0.00000,
,,,-00.000000043400,   0.00000,
,,,-00.000000043200,   0.00000,
,,,-00.000000043000,   0.00000,
,,,-00.000000042800,   0.00000,
,,,-00.000000042600,   0.00000,
,,,-00.000000042400,  -0.20000,
,,,-00.000000042200,  -0.20000,
,,,-00.000000042000,  -0.20000,
,,,-00.000000041800,  -0.20000,
,,,-00.000000041600,  -0.20000,
,,,-00.000000041400,  -0.20000,
,,,-00.000000041200,  -0.40000,
,,,-00.000000041000,  -0.40000,
,,,-00.000000040800,  -0.20000,
,,,-00.000000040600,  -0.20000,
,,,-00.000000040400,  -0.20000,
,,,-00.000000040200,  -0.20000,
,,,-00.000000040000,  -0.20000,
,,,-00.000000039800,  -0.20000,
,,,-00.000000039600,   0.00000,
,,,-00.000000039400,   0.00000,
,,,-00.000000039200,   0.00000,
,,,-00.000000039000,   0.00000,
,,,-00.000000038800,   0.00000,
,,,-00.000000038600,   0.00000,
,,,-00.000000038400,   0.00000,
,,,-00.000000038200,   0.00000,
,,,-00.000000038000,   0.00000,
,,,-00.000000037800,   0.00000,
,,,-00.000000037600,   0.00000,
,,,-00.000000037400,   0.00000,
,,,-00.000000037200,   0.00000,
,,,-00.000000037000,   0.00000,
,,,-00.000000036800,   0.00000,
,,,-00.000000036600,   0.20000,
,,,-00.000000036400,   0.20000,
,,,-00.000000036200,   0.20000,
,,,-00.000000036000,   0.20000,
,,,-00.000000035800,   0.20000,
,,,-00.000000035600,   0.20000,
,,,-00.000000035400,   0.00000,
,,,-00.000000035200,   0.00000,
,,,-00.000000035000,   0.00000,
,,,-00.000000034800,   0.00000,
,,,-00.000000034600,   0.00000,
,,,-00.000000034400,  -0.20000,
,,,-00.000000034200,  -0.20000,
,,,-00.000000034000,  -0.20000,
,,,-00.000000033800,  -0.20000,
,,,-00.000000033600,  -0.20000,
,,,-00.000000033400,  -0.20000,
,,,-00.000000033200,  -0.40000,
,,,-00.000000033000,  -0.40000,
,,,-00.000000032800,  -0.20000,
,,,-00.000000032600,  -0.20000,
,,,-00.000000032400,  -0.20000,
,,,-00.000000032200,  -0.20000,
,,,-00.000000032000,  -0.20000,
,,,-00.000000031800,  -0.20000,
,,,-00.000000031600,   0.00000,
,,,-00.000000031400,   0.00000,
,,,-00.000000031200,   0.00000,
,,,-00.000000031000,   0.00000,
,,,-00.000000030800,   0.00000,
,,,-00.000000030600,   0.00000,
,,,-00.000000030400,   0.00000,
,,,-00.000000030200,   0.00000,
,,,-00.000000030000,   0.00000,
,,,-00.000000029800,   0.00000,
,,,-00.000000029600,   0.00000,
,,,-00.000000029400,  -0.20000,
,,,-00.000000029200,  -0.20000,
,,,-00.000000029000,  -0.20000,
,,,-00.000000028800,  -0.20000,
,,,-00.000000028600,  -0.20000,
,,,-00.000000028400,  -0.20000,
,,,-00.000000028200,  -0.20000,
,,,-00.000000028000,  -0.20000,
,,,-00.000000027800,  -0.20000,
,,,-00.000000027600,  -0.20000,
,,,-00.000000027400,  -0.20000,
,,,-00.000000027200,  -0.20000,
,,,-00.000000027000,  -0.20000,
,,,-00.000000026800,  -0.20000,
,,,-00.000000026600,  -0.20000,
,,,-00.000000026400,  -0.20000,
,,,-00.000000026200,  -0.20000,
,,,-00.000000026000,  -0.20000,
,,,-00.000000025800,  -0.20000,
,,,-00.000000025600,   0.00000,
,,,-00.000000025400,   0.00000,
,,,-00.000000025200,   0.00000,
,,,-00.000000025000,   0.00000,
,,,-00.000000024800,   0.20000,
,,,-00.000000024600,   0.20000,
,,,-00.000000024400,   0.20000,
,,,-00.000000024200,   0.00000,
,,,-00.000000024000,   0.00000,
,,,-00.000000023800,   0.00000,
,,,-00.000000023600,   0.00000,
,,,-00.000000023400,  -0.20000,
,,,-00.000000023200,  -0.20000,
,,,-00.000000023000,  -0.20000,
,,,-00.000000022800,  -0.20000,
,,,-00.000000022600,  -0.20000,
,,,-00.000000022400,  -0.20000,
,,,-00.000000022200,  -0.40000,
,,,-00.000000022000,  -0.40000,
,,,-00.000000021800,  -0.20000,
,,,-00.000000021600,  -0.20000,
,,,-00.000000021400,  -0.20000,
,,,-00.000000021200,  -0.20000,
,,,-00.000000021000,  -0.20000,
,,,-00.000000020800,  -0.20000,
,,,-00.000000020600,   0.00000,
,,,-00.000000020400,  -0.20000,
,,,-00.000000020200,  -0.20000,
,,,-00.000000020000,  -0.20000,
,,,-00.000000019800,  -0.20000,
,,,-00.000000019600,  -0.20000,
,,,-00.000000019400,  -0.20000,
,,,-00.000000019200,  -0.40000,
,,,-00.000000019000,  -0.40000,
,,,-00.000000018800,  -0.20000,
,,,-00.000000018600,  -0.20000,
,,,-00.000000018400,  -0.20000,
,,,-00.000000018200,  -0.20000,
,,,-00.000000018000,  -0.20000,
,,,-00.000000017800,  -0.20000,
,,,-00.000000017600,   0.00000,
,,,-00.000000017400,  -0.20000,
,,,-00.000000017200,  -0.20000,
,,,-00.000000017000,  -0.20000,
,,,-00.000000016800,  -0.20000,
,,,-00.000000016600,  -0.20000,
,,,-00.000000016400,  -0.20000,
,,,-00.000000016200,  -0.20000,
,,,-00.000000016000,   0.00000,
,,,-00.000000015800,   0.00000,
,,,-00.000000015600,   0.20000,
,,,-00.000000015400,   0.20000,
,,,-00.000000015200,   0.20000,
,,,-00.000000015000,   0.20000,
,,,-00.000000014800,   0.20000,
,,,-00.000000014600,   0.20000,
,,,-00.000000014400,   0.00000,
,,,-00.000000014200,   0.00000,
,,,-00.000000014000,   0.00000,
,,,-00.000000013800,   0.00000,
,,,-00.000000013600,   0.00000,
,,,-00.000000013400,  -0.20000,
,,,-00.000000013200,  -0.20000,
,,,-00.000000013000,  -0.20000,
,,,-00.000000012800,  -0.20000,
,,,-00.000000012600,  -0.20000,
,,,-00.000000012400,  -0.20000,
,,,-00.000000012200,  -0.20000,
,,,-00.000000012000,  -0.20000,
,,,-00.000000011800,  -0.20000,
,,,-00.000000011600,   0.00000,
,,,-00.000000011400,   0.00000,
,,,-00.000000011200,   0.00000,
,,,-00.000000011000,   0.00000,
,,,-00.000000010800,   0.00000,
,,,-00.000000010600,   0.20000,
,,,-00.000000010400,   0.20000,
,,,-00.000000010200,   0.20000,
,,,-00.000000010000,   0.20000,
,,,-00.000000009800,   0.20000,
,,,-00.000000009600,   0.20000,
,,,-00.000000009400,   0.20000,
,,,-00.000000009200,   0.20000,
,,,-00.000000009000,   0.20000,
,,,-00.000000008800,   0.20000,
,,,-00.000000008600,   0.20000,
,,,-00.000000008400,   0.20000,
,,,-00.000000008200,   0.20000,
,,,-00.000000008000,   0.20000,
,,,-00.000000007800,   0.20000,
,,,-00.000000007600,   0.40000,
,,,-00.000000007400,   0.40000,
,,,-00.000000007200,   0.40000,
,,,-00.000000007000,   0.40000,
,,,-00.000000006800,   0.40000,
,,,-00.000000006600,   0.60000,
,,,-00.000000006400,   0.60000,
,,,-00.000000006200,   0.60000,
,,,-00.000000006000,   0.80000,
,,,-00.000000005800,   0.80000,
,,,-00.000000005600,   1.00000,
,,,-00.000000005400,   1.00000,
,,,-00.000000005200,   1.20000,
,,,-00.000000005000,   1.20000,
,,,-00.000000004800,   1.40000,
,,,-00.000000004600,   1.60000,
,,,-00.000000004400,   1.60000,
,,,-00.000000004200,   1.60000,
,,,-00.000000004000,   1.80000,
,,,-00.000000003800,   1.80000,
,,,-00.000000003600,   2.00000,
,,,-00.000000003400,   2.00000,
,,,-00.000000003200,   2.20000,
,,,-00.000000003000,   2.20000,
,,,-00.000000002800,   2.40000,
,,,-00.000000002600,   2.60000,
,,,-00.000000002400,   2.60000,
,,,-00.000000002200,   2.80000,
,,,-00.000000002000,   2.80000,
,,,-00.000000001800,   3.00000,
,,,-00.000000001600,   3.20000,
,,,-00.000000001400,   3.40000,
,,,-00.000000001200,   3.60000,
,,,-00.000000001000,   3.80000,
,,,-00.000000000800,   4.00000,
,,,-00.000000000600,   4.20000,
,,,-00.000000000400,   4.40000,
,,,-00.000000000200,   4.40000,
,,,-00.000000000000,   4.60000,
,,,00.000000000200,   4.80000,
,,,00.000000000400,   5.00000,
,,,00.000000000600,   5.00000,
,,,00.000000000800,   5.00000,
,,,00.000000001000,   5.20000,
,,,00.000000001200,   5.20000,
,,,00.000000001400,   5.40000,
,,,00.000000001600,   5.40000,
,,,00.000000001800,   5.60000,
,,,00.000000002000,   5.60000,
,,,00.000000002200,   5.80000,
,,,00.000000002400,   6.00000,
,,,00.000000002600,   6.00000,
,,,00.000000002800,   6.20000,
,,,00.000000003000,   6.20000,
,,,00.000000003200,   6.40000,
,,,00.000000003400,   6.60000,
,,,00.000000003600,   6.60000,
,,,00.000000003800,   6.80000,
,,,00.000000004000,   7.00000,
,,,00.000000004200,   7.00000,
,,,00.000000004400,   7.20000,
,,,00.000000004600,   7.20000,
,,,00.000000004800,   7.20000,
,,,00.000000005000,   7.20000,
,,,00.000000005200,   7.40000,
,,,00.000000005400,   7.40000,
,,,00.000000005600,   7.40000,
,,,00.000000005800,   7.40000,
,,,00.000000006000,   7.40000,
,,,00.000000006200,   7.40000,
,,,00.000000006400,   7.60000,
,,,00.000000006600,   7.60000,
,,,00.000000006800,   7.60000,
,,,00.000000007000,   7.60000,
,,,00.000000007200,   7.60000,
,,,00.000000007400,   7.60000,
,,,00.000000007600,   7.40000,
,,,00.000000007800,   7.40000,
,,,00.000000008000,   7.20000,
,,,00.000000008200,   7.20000,
,,,00.000000008400,   7.20000,
,,,00.000000008600,   7.20000,
,,,00.000000008800,   7.00000,
,,,00.000000009000,   7.20000,
,,,00.000000009200,   7.20000,
,,,00.000000009400,   7.20000,
,,,00.000000009600,   7.20000,
,,,00.000000009800,   7.20000,
,,,00.000000010000,   7.20000,
,,,00.000000010200,   7.20000,
,,,00.000000010400,   7.20000,
,,,00.000000010600,   7.20000,
,,,00.000000010800,   7.00000,
,,,00.000000011000,   7.00000,
,,,00.000000011200,   7.00000,
,,,00.000000011400,   7.00000,
,,,00.000000011600,   6.80000,
,,,00.000000011800,   6.80000,
,,,00.000000012000,   6.60000,
,,,00.000000012200,   6.60000,
,,,00.000000012400,   6.60000,
,,,00.000000012600,   6.40000,
,,,00.000000012800,   6.40000,
,,,00.000000013000,   6.20000,
,,,00.000000013200,   6.20000,
,,,00.000000013400,   6.20000,
,,,00.000000013600,   6.00000,
,,,00.000000013800,   6.00000,
,,,00.000000014000,   6.00000,
,,,00.000000014200,   6.00000,
,,,00.000000014400,   6.00000,
,,,00.000000014600,   6.00000,
,,,00.000000014800,   6.00000,
,,,00.000000015000,   6.00000,
,,,00.000000015200,   6.00000,
,,,00.000000015400,   6.00000,
,,,00.000000015600,   5.80000,
,,,00.000000015800,   5.80000,
,,,00.000000016000,   5.80000,
,,,00.000000016200,   5.80000,
,,,00.000000016400,   5.80000,
,,,00.000000016600,   5.80000,
,,,00.000000016800,   5.80000,
,,,00.000000017000,   5.80000,
,,,00.000000017200,   5.80000,
,,,00.000000017400,   6.00000,
,,,00.000000017600,   6.00000,
,,,00.000000017800,   6.00000,
,,,00.000000018000,   6.20000,
,,,00.000000018200,   6.20000,
,,,00.000000018400,   6.40000,
,,,00.000000018600,   6.40000,
,,,00.000000018800,   6.40000,
,,,00.000000019000,   6.40000,
,,,00.000000019200,   6.40000,
,,,00.000000019400,   6.40000,
,,,00.000000019600,   6.20000,
,,,00.000000019800,   6.20000,
,,,00.000000020000,   6.20000,
,,,00.000000020200,   6.20000,
,,,00.000000020400,   6.20000,
,,,00.000000020600,   6.20000,
,,,00.000000020800,   6.00000,
,,,00.000000021000,   6.00000,
,,,00.000000021200,   6.20000,
,,,00.000000021400,   6.20000,
,,,00.000000021600,   6.20000,
,,,00.000000021800,   6.20000,
,,,00.000000022000,   6.20000,
,,,00.000000022200,   6.20000,
,,,00.000000022400,   6.40000,
,,,00.000000022600,   6.40000,
,,,00.000000022800,   6.40000,
,,,00.000000023000,   6.40000,
,,,00.000000023200,   6.60000,
,,,00.000000023400,   6.60000,
,,,00.000000023600,   6.60000,
,,,00.000000023800,   6.40000,
,,,00.000000024000,   6.40000,
,,,00.000000024200,   6.40000,
,,,00.000000024400,   6.40000,
,,,00.000000024600,   6.20000,
,,,00.000000024800,   6.20000,
,,,00.000000025000,   6.20000,
,,,00.000000025200,   6.20000,
,,,00.000000025400,   6.20000,
,,,00.000000025600,   6.20000,
,,,00.000000025800,   6.20000,
,,,00.000000026000,   6.20000,
,,,00.000000026200,   6.20000,
,,,00.000000026400,   6.20000,
,,,00.000000026600,   6.20000,
,,,00.000000026800,   6.20000,
,,,00.000000027000,   6.20000,
,,,00.000000027200,   6.20000,
,,,00.000000027400,   6.20000,
,,,00.000000027600,   6.00000,
,,,00.000000027800,   6.00000,
,,,00.000000028000,   5.80000,
,,,00.000000028200,   5.80000,
,,,00.000000028400,   5.80000,
,,,00.000000028600,   5.60000,
,,,00.000000028800,   5.60000,
,,,00.000000029000,   5.60000,
,,,00.000000029200,   5.60000,
,,,00.000000029400,   5.80000,
,,,00.000000029600,   5.80000,
,,,00.000000029800,   5.80000,
,,,00.000000030000,   5.80000,
,,,00.000000030200,   5.80000,
,,,00.000000030400,   6.00000,
,,,00.000000030600,   6.00000,
,,,00.000000030800,   5.80000,
,,,00.000000031000,   5.80000,
,,,00.000000031200,   5.80000,
,,,00.000000031400,   5.80000,
,,,00.000000031600,   5.60000,
,,,00.000000031800,   5.60000,
,,,00.000000032000,   5.60000,
,,,00.000000032200,   5.60000,
,,,00.000000032400,   5.60000,
,,,00.000000032600,   5.60000,
,,,00.000000032800,   5.60000,
,,,00.000000033000,   5.80000,
,,,00.000000033200,   5.80000,
,,,00.000000033400,   6.00000,
,,,00.000000033600,   6.00000,
,,,00.000000033800,   6.00000,
,,,00.000000034000,   6.00000,
,,,00.000000034200,   6.00000,
,,,00.000000034400,   6.00000,
,,,00.000000034600,   6.00000,
,,,00.000000034800,   6.00000,
,,,00.000000035000,   6.00000,
,,,00.000000035200,   6.20000,
,,,00.000000035400,   6.20000,
,,,00.000000035600,   6.00000,
,,,00.000000035800,   6.00000,
,,,00.000000036000,   6.00000,
,,,00.000000036200,   5.80000,
,,,00.000000036400,   5.80000,
,,,00.000000036600,   5.60000,
,,,00.000000036800,   5.60000,
,,,00.000000037000,   5.60000,
,,,00.000000037200,   5.60000,
,,,00.000000037400,   5.60000,
,,,00.000000037600,   5.60000,
,,,00.000000037800,   5.60000,
,,,00.000000038000,   5.80000,
,,,00.000000038200,   5.80000,
,,,00.000000038400,   6.00000,
,,,00.000000038600,   6.00000,
,,,00.000000038800,   5.80000,
,,,00.000000039000,   5.80000,
,,,00.000000039200,   5.80000,
,,,00.000000039400,   5.80000,
,,,00.000000039600,   5.80000,
,,,00.000000039800,   5.60000,
,,,00.000000040000,   5.60000,
,,,00.000000040200,   5.80000,
,,,00.000000040400,   5.80000,
,,,00.000000040600,   5.80000,
,,,00.000000040800,   5.80000,
,,,00.000000041000,   5.80000,
,,,00.000000041200,   5.80000,
,,,00.000000041400,   6.00000,
,,,00.000000041600,   6.00000,
,,,00.000000041800,   6.00000,
,,,00.000000042000,   6.00000,
,,,00.000000042200,   6.00000,
,,,00.000000042400,   6.00000,
,,,00.000000042600,   5.80000,
,,,00.000000042800,   5.80000,
,,,00.000000043000,   5.60000,
,,,00.000000043200,   5.60000,
,,,00.000000043400,   5.60000,
,,,00.000000043600,   5.40000,
,,,00.000000043800,   5.40000,
,,,00.000000044000,   5.40000,
,,,00.000000044200,   5.40000,
,,,00.000000044400,   5.60000,
,,,00.000000044600,   5.60000,
,,,00.000000044800,   5.60000,
,,,00.000000045000,   5.60000,
,,,00.000000045200,   5.60000,
,,,00.000000045400,   5.80000,
,,,00.000000045600,   5.80000,
,,,00.000000045800,   5.60000,
,,,00.000000046000,   5.60000,
,,,00.000000046200,   5.60000,
,,,00.000000046400,   5.60000,
,,,00.000000046600,   5.40000,
,,,00.000000046800,   5.40000,
,,,00.000000047000,   5.40000,
,,,00.000000047200,   5.40000,
,,,00.000000047400,   5.40000,
,,,00.000000047600,   5.40000,
,,,00.000000047800,   5.40000,
,,,00.000000048000,   5.40000,
,,,00.000000048200,   5.40000,
,,,00.000000048400,   5.60000,
,,,00.000000048600,   5.60000,
,,,00.000000048800,   5.60000,
,,,00.000000049000,   5.60000,
,,,00.000000049200,   5.60000,
,,,00.000000049400,   5.80000,
,,,00.000000049600,   5.80000,
,,,00.000000049800,   5.80000,
,,,00.000000050000,   5.80000,
,,,00.000000050200,   5.80000,
,,,00.000000050400,   5.80000,
,,,00.000000050600,   5.80000,
,,,00.000000050800,   5.80000,
,,,00.000000051000,   5.80000,
,,,00.000000051200,   5.80000,
,,,00.000000051400,   5.80000,
,,,00.000000051600,   5.80000,
,,,00.000000051800,   5.80000,
,,,00.000000052000,   5.80000,
,,,00.000000052200,   5.80000,
,,,00.000000052400,   5.80000,
,,,00.000000052600,   5.60000,
,,,00.000000052800,   5.60000,
,,,00.000000053000,   5.60000,
,,,00.000000053200,   5.60000,
,,,00.000000053400,   5.60000,
,,,00.000000053600,   5.60000,
,,,00.000000053800,   5.40000,
,,,00.000000054000,   5.40000,
,,,00.000000054200,   5.60000,
,,,00.000000054400,   5.60000,
,,,00.000000054600,   5.60000,
,,,00.000000054800,   5.60000,
,,,00.000000055000,   5.60000,
,,,00.000000055200,   5.60000,
,,,00.000000055400,   5.80000,
,,,00.000000055600,   5.80000,
,,,00.000000055800,   5.80000,
,,,00.000000056000,   5.80000,
,,,00.000000056200,   6.00000,
,,,00.000000056400,   6.00000,
,,,00.000000056600,   5.80000,
,,,00.000000056800,   5.80000,
,,,00.000000057000,   5.60000,
,,,00.000000057200,   5.60000,
,,,00.000000057400,   5.60000,
,,,00.000000057600,   5.40000,
,,,00.000000057800,   5.40000,
,,,00.000000058000,   5.40000,
,,,00.000000058200,   5.40000,
,,,00.000000058400,   5.60000,
,,,00.000000058600,   5.60000,
,,,00.000000058800,   5.60000,
,,,00.000000059000,   5.60000,
,,,00.000000059200,   5.60000,
,,,00.000000059400,   5.80000,
,,,00.000000059600,   5.80000,
,,,00.000000059800,   5.80000,
,,,00.000000060000,   5.80000,
,,,00.000000060200,   5.80000,
,,,00.000000060400,   5.80000,
,,,00.000000060600,   5.60000,
,,,00.000000060800,   5.60000,
,,,00.000000061000,   5.60000,
,,,00.000000061200,   5.60000,
,,,00.000000061400,   5.60000,
,,,00.000000061600,   5.60000,
,,,00.000000061800,   5.40000,
,,,00.000000062000,   5.40000,
,,,00.000000062200,   5.60000,
,,,00.000000062400,   5.60000,
,,,00.000000062600,   5.60000,
,,,00.000000062800,   5.60000,
,,,00.000000063000,   5.60000,
,,,00.000000063200,   5.60000,
,,,00.000000063400,   5.80000,
,,,00.000000063600,   5.80000,
,,,00.000000063800,   5.80000,
,,,00.000000064000,   5.80000,
,,,00.000000064200,   5.80000,
,,,00.000000064400,   5.80000,
,,,00.000000064600,   5.60000,
,,,00.000000064800,   5.60000,
,,,00.000000065000,   5.60000,
,,,00.000000065200,   5.60000,
,,,00.000000065400,   5.60000,
,,,00.000000065600,   5.60000,
,,,00.000000065800,   5.40000,
,,,00.000000066000,   5.40000,
,,,00.000000066200,   5.60000,
,,,00.000000066400,   5.60000,
,,,00.000000066600,   5.60000,
,,,00.000000066800,   5.60000,
,,,00.000000067000,   5.60000,
,,,00.000000067200,   5.60000,
,,,00.000000067400,   5.80000,
,,,00.000000067600,   5.80000,
,,,00.000000067800,   5.80000,
,,,00.000000068000,   5.80000,
,,,00.000000068200,   5.80000,
,,,00.000000068400,   5.80000,
,,,00.000000068600,   5.60000,
,,,00.000000068800,   5.60000,
